LAB4/100mv_milo2.csv

#Digilent WaveForms Oscilloscope Acquisition
#Device Name: Discovery2
#Serial Number: SN:210321A18A25
#Date Time: 2023-04-30 20:34:19.069
#Sample rate: 1.17647e+06Hz
#Samples: 8192
#Trigger: Source: Channel 1 Type: Edge Condition: Rising Level: 2.5 V Hyst.: Auto HoldOff: 0 s
#Channel 1: Range: 500 mV/div Offset: -2 V Attenuation: 1 X Sample Mode: Average
#Channel 2: Range: 500 mV/div Offset: -2 V Attenuation: 1 X Sample Mode: Average
#Wavegen Channel 1: Running
#Mode: Simple
#Type: Square
#Frequency: 500 Hz
#Period: 2 ms
#Amplitude: 100 mV
#Offset: 2.5 V
#Symmetry: 50 %
#Phase: 0 °

Time (s),Channel 1 (V),Channel 2 (V)
-0.002389450621627961,2.389949461807848,2.372993558439928
-0.002388600621627962,2.390621018574575,2.373659346056881
-0.002387750621627961,2.390621018574575,2.373659346056881
-0.002386900621627961,2.390621018574575,2.373659346056881
-0.002386050621627962,2.389949461807848,2.373659346056881
-0.002385200621627961,2.389949461807848,2.373659346056881
-0.002384350621627961,2.389949461807848,2.373659346056881
-0.002383500621627962,2.389277905041121,2.373659346056881
-0.002382650621627961,2.389613683424484,2.373326452248405
-0.002381800621627961,2.389277905041121,2.373659346056881
-0.002380950621627962,2.389277905041121,2.373659346056881
-0.002380100621627961,2.389613683424484,2.373659346056881
-0.002379250621627962,2.389949461807848,2.373326452248405
-0.002378400621627961,2.389949461807848,2.373992239865358
-0.002377550621627961,2.389613683424484,2.373659346056881
-0.002376700621627962,2.389277905041121,2.373326452248405
-0.002375850621627961,2.389277905041121,2.373659346056881
-0.002375000621627961,2.389277905041121,2.373326452248405
-0.002374150621627962,2.389277905041121,2.373326452248405
-0.002373300621627961,2.389949461807848,2.373326452248405
-0.002372450621627961,2.389949461807848,2.373326452248405
-0.002371600621627962,2.389277905041121,2.373326452248405
-0.002370750621627961,2.389949461807848,2.373326452248405
-0.002369900621627961,2.389613683424484,2.373326452248405
-0.002369050621627961,2.389277905041121,2.373326452248405
-0.002368200621627961,2.389277905041121,2.373326452248405
-0.002367350621627962,2.389277905041121,2.372993558439928
-0.002366500621627961,2.389949461807848,2.373326452248405
-0.002365650621627961,2.390285240191211,2.373326452248405
-0.002364800621627962,2.389949461807848,2.372993558439928
-0.002363950621627961,2.389277905041121,2.372993558439928
-0.002363100621627961,2.388942126657758,2.373326452248405
-0.002362250621627962,2.389277905041121,2.373326452248405
-0.002361400621627961,2.389613683424484,2.373326452248405
-0.002360550621627961,2.389277905041121,2.373659346056881
-0.002359700621627962,2.388942126657758,2.373659346056881
-0.002358850621627961,2.389277905041121,2.373659346056881
-0.002358000621627962,2.388942126657758,2.372993558439929
-0.002357150621627961,2.388942126657758,2.372993558439928
-0.002356300621627961,2.389613683424484,2.373326452248405
-0.002355450621627962,2.389613683424484,2.372993558439928
-0.002354600621627961,2.389613683424484,2.372993558439928
-0.002353750621627961,2.389949461807848,2.372993558439928
-0.002352900621627962,2.389613683424484,2.373659346056881
-0.002352050621627961,2.389277905041121,2.373659346056881
-0.002351200621627961,2.389277905041121,2.373326452248405
-0.002350350621627962,2.388942126657758,2.373326452248405
-0.002349500621627961,2.389613683424484,2.373326452248405
-0.002348650621627962,2.389949461807848,2.373326452248405
-0.002347800621627961,2.389949461807848,2.373659346056881
-0.002346950621627961,2.390285240191211,2.373326452248405
-0.002346100621627962,2.390285240191211,2.373326452248405
-0.002345250621627961,2.389613683424484,2.373326452248405
-0.002344400621627961,2.389949461807848,2.373326452248405
-0.002343550621627962,2.389613683424484,2.373326452248405
-0.002342700621627961,2.389613683424484,2.373326452248405
-0.002341850621627961,2.389277905041121,2.373326452248405
-0.002341000621627962,2.389949461807848,2.373326452248405
-0.002340150621627961,2.389949461807848,2.373326452248405
-0.002339300621627961,2.389613683424484,2.373326452248405
-0.002338450621627962,2.389949461807848,2.373659346056881
-0.002337600621627961,2.389613683424484,2.373659346056881
-0.002336750621627962,2.389613683424484,2.373659346056881
-0.002335900621627961,2.389949461807848,2.373659346056881
-0.002335050621627961,2.389613683424484,2.373659346056881
-0.002334200621627962,2.389949461807848,2.373992239865358
-0.002333350621627961,2.390285240191211,2.373326452248405
-0.002332500621627961,2.389277905041121,2.373326452248405
-0.002331650621627962,2.389613683424484,2.373326452248405
-0.002330800621627961,2.389613683424484,2.373659346056881
-0.002329950621627961,2.389277905041121,2.373992239865358
-0.002329100621627962,2.389949461807848,2.373659346056881
-0.002328250621627961,2.389613683424484,2.373659346056881
-0.002327400621627962,2.389613683424484,2.373659346056881
-0.002326550621627961,2.389949461807848,2.373992239865358
-0.002325700621627961,2.389613683424484,2.373659346056881
-0.002324850621627962,2.389949461807848,2.373326452248405
-0.002324000621627961,2.389949461807848,2.373326452248405
-0.002323150621627961,2.390621018574575,2.373659346056881
-0.002322300621627962,2.390621018574575,2.373992239865358
-0.002321450621627961,2.390956796957938,2.373992239865358
-0.002320600621627961,2.389949461807848,2.373992239865358
-0.002319750621627962,2.389949461807848,2.373992239865358
-0.002318900621627961,2.390285240191211,2.373659346056881
-0.002318050621627961,2.389949461807848,2.373326452248405
-0.002317200621627962,2.390285240191211,2.373326452248405
-0.002316350621627961,2.390285240191211,2.373659346056881
-0.002315500621627962,2.389613683424484,2.373659346056881
-0.002314650621627961,2.389613683424484,2.373992239865358
-0.002313800621627961,2.390285240191211,2.373992239865358
-0.002312950621627962,2.389949461807848,2.373992239865358
-0.002312100621627961,2.389613683424484,2.373992239865358
-0.002311250621627961,2.389613683424484,2.373992239865358
-0.002310400621627962,2.389949461807848,2.373992239865358
-0.002309550621627961,2.389949461807848,2.373659346056881
-0.002308700621627961,2.389613683424484,2.373992239865358
-0.002307850621627962,2.389613683424484,2.373992239865358
-0.002307000621627961,2.388942126657758,2.373992239865358
-0.002306150621627962,2.388942126657758,2.373326452248405
-0.002305300621627961,2.389949461807848,2.373326452248405
-0.002304450621627961,2.389613683424484,2.373659346056881
-0.002303600621627962,2.389613683424484,2.373992239865358
-0.002302750621627961,2.389277905041121,2.373659346056881
-0.002301900621627961,2.389613683424484,2.373659346056881
-0.002301050621627962,2.388942126657758,2.373659346056881
-0.002300200621627961,2.388942126657758,2.373326452248405
-0.002299350621627961,2.389949461807848,2.373659346056881
-0.002298500621627962,2.390621018574575,2.373659346056881
-0.002297650621627961,2.390285240191211,2.373659346056881
-0.002296800621627961,2.389277905041121,2.373326452248405
-0.002295950621627962,2.389949461807848,2.373326452248405
-0.002295100621627961,2.390285240191211,2.372993558439928
-0.002294250621627962,2.389613683424484,2.373326452248405
-0.002293400621627961,2.389277905041121,2.373326452248405
-0.002292550621627961,2.389949461807848,2.373659346056881
-0.002291700621627962,2.389277905041121,2.373659346056881
-0.002290850621627961,2.389949461807848,2.373659346056881
-0.002290000621627961,2.390285240191211,2.373992239865358
-0.002289150621627962,2.389613683424484,2.373659346056881
-0.002288300621627961,2.388942126657758,2.373659346056881
-0.002287450621627961,2.388942126657758,2.373992239865358
-0.002286600621627962,2.388606348274394,2.373992239865358
-0.002285750621627961,2.389277905041121,2.373659346056881
-0.002284900621627962,2.389613683424484,2.373992239865358
-0.002284050621627961,2.389277905041121,2.373326452248405
-0.002283200621627961,2.389613683424484,2.373659346056881
-0.002282350621627962,2.389613683424484,2.373659346056881
-0.002281500621627961,2.389949461807848,2.373659346056881
-0.002280650621627961,2.390621018574575,2.373659346056881
-0.002279800621627962,2.389949461807848,2.373659346056881
-0.002278950621627961,2.390621018574575,2.373659346056881
-0.002278100621627961,2.390621018574575,2.373992239865358
-0.002277250621627962,2.390956796957938,2.373992239865358
-0.002276400621627961,2.389949461807848,2.373992239865358
-0.002275550621627961,2.389949461807848,2.373992239865358
-0.002274700621627962,2.389613683424484,2.373659346056881
-0.002273850621627961,2.389949461807848,2.373659346056881
-0.002273000621627962,2.389949461807848,2.373659346056881
-0.002272150621627961,2.390285240191211,2.373992239865358
-0.002271300621627961,2.389949461807848,2.373992239865358
-0.002270450621627962,2.389277905041121,2.373659346056881
-0.002269600621627961,2.389613683424484,2.373659346056881
-0.002268750621627961,2.390285240191211,2.373659346056881
-0.002267900621627962,2.390621018574575,2.373659346056881
-0.002267050621627961,2.390621018574575,2.373326452248405
-0.002266200621627961,2.389949461807848,2.373659346056881
-0.002265350621627962,2.389949461807848,2.373326452248405
-0.002264500621627961,2.390621018574575,2.373659346056881
-0.002263650621627962,2.390285240191211,2.373659346056881
-0.002262800621627961,2.389949461807848,2.373659346056881
-0.002261950621627961,2.390285240191211,2.373659346056881
-0.002261100621627962,2.389277905041121,2.373659346056881
-0.002260250621627961,2.389613683424484,2.373992239865358
-0.002259400621627961,2.389949461807848,2.373992239865358
-0.002258550621627962,2.389613683424484,2.373659346056881
-0.002257700621627961,2.389949461807848,2.373659346056881
-0.002256850621627961,2.389613683424484,2.373326452248405
-0.002256000621627962,2.389613683424484,2.373659346056881
-0.002255150621627961,2.389949461807848,2.373659346056881
-0.002254300621627961,2.389949461807848,2.373992239865358
-0.002253450621627962,2.389949461807848,2.373659346056881
-0.002252600621627961,2.389613683424484,2.373326452248405
-0.002251750621627962,2.389613683424484,2.373326452248405
-0.002250900621627961,2.389613683424484,2.373326452248405
-0.002250050621627961,2.389949461807848,2.373992239865358
-0.002249200621627962,2.390285240191211,2.373659346056881
-0.002248350621627961,2.389277905041121,2.373326452248405
-0.002247500621627961,2.389277905041121,2.372993558439928
-0.002246650621627962,2.389277905041121,2.372993558439928
-0.002245800621627961,2.389613683424484,2.373326452248405
-0.002244950621627961,2.389277905041121,2.373326452248405
-0.002244100621627962,2.390285240191211,2.373326452248405
-0.002243250621627961,2.390285240191211,2.373326452248405
-0.002242400621627962,2.390285240191211,2.373326452248405
-0.002241550621627961,2.389949461807848,2.373326452248405
-0.002240700621627961,2.389949461807848,2.373326452248405
-0.002239850621627962,2.389613683424484,2.373659346056881
-0.002239000621627961,2.389277905041121,2.373659346056881
-0.002238150621627961,2.389949461807848,2.373326452248405
-0.002237300621627962,2.389949461807848,2.373326452248405
-0.002236450621627961,2.389613683424484,2.373659346056881
-0.002235600621627961,2.389613683424484,2.373992239865358
-0.002234750621627962,2.390621018574575,2.373659346056881
-0.002233900621627961,2.390285240191211,2.373992239865358
-0.002233050621627962,2.390285240191211,2.373992239865358
-0.002232200621627962,2.389613683424484,2.373659346056881
-0.002231350621627961,2.388942126657758,2.373992239865358
-0.002230500621627962,2.389613683424484,2.373659346056881
-0.002229650621627961,2.389613683424484,2.373659346056881
-0.002228800621627961,2.388942126657758,2.373659346056881
-0.002227950621627962,2.389277905041121,2.373659346056881
-0.002227100621627961,2.389277905041121,2.373326452248405
-0.002226250621627961,2.390621018574575,2.373659346056881
-0.002225400621627962,2.390285240191211,2.373326452248405
-0.002224550621627961,2.390285240191211,2.373659346056881
-0.002223700621627961,2.389949461807848,2.373992239865358
-0.002222850621627962,2.390621018574575,2.373659346056881
-0.002222000621627961,2.389949461807848,2.373992239865358
-0.002221150621627962,2.389277905041121,2.373992239865358
-0.002220300621627961,2.388942126657758,2.373326452248405
-0.002219450621627961,2.389613683424484,2.373326452248405
-0.002218600621627962,2.390285240191211,2.373659346056881
-0.002217750621627961,2.390285240191211,2.373326452248405
-0.002216900621627961,2.389949461807848,2.373326452248405
-0.002216050621627962,2.389949461807848,2.373992239865358
-0.002215200621627961,2.389277905041121,2.373659346056881
-0.002214350621627961,2.389613683424484,2.373992239865358
-0.002213500621627962,2.389613683424484,2.373992239865358
-0.002212650621627961,2.389277905041121,2.374325133673834
-0.002211800621627962,2.389277905041121,2.373659346056882
-0.002210950621627962,2.389613683424484,2.373659346056881
-0.002210100621627961,2.389277905041121,2.373659346056881
-0.002209250621627962,2.389949461807848,2.373326452248405
-0.002208400621627961,2.389949461807848,2.373659346056881
-0.002207550621627961,2.389949461807848,2.373659346056881
-0.002206700621627962,2.389949461807848,2.373326452248405
-0.002205850621627961,2.389613683424484,2.373326452248405
-0.002205000621627961,2.388942126657758,2.373659346056881
-0.002204150621627962,2.389949461807848,2.373659346056881
-0.002203300621627961,2.389949461807848,2.373659346056881
-0.002202450621627961,2.390285240191211,2.373326452248405
-0.002201600621627962,2.389949461807848,2.373326452248405
-0.002200750621627961,2.389613683424484,2.373326452248405
-0.002199900621627962,2.389277905041121,2.373659346056881
-0.002199050621627961,2.389613683424484,2.373659346056881
-0.002198200621627961,2.389949461807848,2.373659346056881
-0.002197350621627962,2.390621018574575,2.373659346056881
-0.002196500621627961,2.389949461807848,2.373326452248405
-0.002195650621627961,2.389277905041121,2.373659346056881
-0.002194800621627962,2.389613683424484,2.373659346056881
-0.002193950621627961,2.389949461807848,2.373659346056881
-0.002193100621627961,2.389949461807848,2.373659346056881
-0.002192250621627962,2.389949461807848,2.373326452248405
-0.002191400621627961,2.390285240191211,2.372993558439928
-0.002190550621627962,2.389949461807848,2.373659346056881
-0.002189700621627961,2.389613683424484,2.373992239865358
-0.002188850621627961,2.389277905041121,2.373992239865358
-0.002188000621627962,2.390285240191211,2.374325133673834
-0.002187150621627961,2.390285240191211,2.373992239865358
-0.002186300621627961,2.390621018574575,2.373992239865358
-0.002185450621627962,2.390285240191211,2.373992239865358
-0.002184600621627961,2.390285240191211,2.373992239865358
-0.002183750621627961,2.389613683424484,2.373992239865358
-0.002182900621627962,2.390285240191211,2.373992239865358
-0.002182050621627961,2.390956796957938,2.373992239865358
-0.002181200621627961,2.390621018574575,2.373992239865358
-0.002180350621627962,2.390285240191211,2.373992239865358
-0.002179500621627961,2.389613683424484,2.373992239865358
-0.002178650621627962,2.390285240191211,2.373992239865358
-0.002177800621627961,2.390285240191211,2.373992239865358
-0.002176950621627961,2.389613683424484,2.373992239865358
-0.002176100621627962,2.390285240191211,2.373659346056881
-0.002175250621627961,2.390621018574575,2.373659346056881
-0.002174400621627961,2.389949461807848,2.373659346056881
-0.002173550621627962,2.389949461807848,2.373992239865358
-0.002172700621627961,2.390285240191211,2.373992239865358
-0.002171850621627961,2.389949461807848,2.373659346056881
-0.002171000621627962,2.389613683424484,2.373992239865358
-0.002170150621627961,2.390621018574575,2.373659346056881
-0.002169300621627962,2.389949461807848,2.373992239865358
-0.002168450621627961,2.389277905041121,2.373992239865358
-0.002167600621627961,2.390285240191211,2.373659346056881
-0.002166750621627962,2.390956796957938,2.373992239865358
-0.002165900621627961,2.390956796957938,2.373992239865358
-0.002165050621627961,2.389949461807848,2.373992239865358
-0.002164200621627962,2.389613683424484,2.373659346056881
-0.002163350621627961,2.389613683424484,2.374325133673834
-0.002162500621627961,2.390621018574575,2.374325133673834
-0.002161650621627962,2.389949461807848,2.373659346056881
-0.002160800621627961,2.389613683424484,2.373659346056881
-0.002159950621627961,2.389949461807848,2.373659346056881
-0.002159100621627962,2.389949461807848,2.373992239865358
-0.002158250621627961,2.389949461807848,2.374325133673834
-0.002157400621627962,2.389949461807848,2.373992239865358
-0.002156550621627961,2.389613683424484,2.373659346056881
-0.002155700621627961,2.390285240191211,2.374325133673834
-0.002154850621627962,2.389949461807848,2.374325133673834
-0.002154000621627961,2.390285240191211,2.373992239865358
-0.002153150621627961,2.389949461807848,2.373992239865358
-0.002152300621627962,2.390621018574575,2.373992239865358
-0.002151450621627961,2.389949461807848,2.373992239865358
-0.002150600621627961,2.389613683424484,2.373659346056881
-0.002149750621627962,2.389613683424484,2.373659346056881
-0.002148900621627961,2.389949461807848,2.373659346056881
-0.002148050621627962,2.390285240191211,2.373659346056881
-0.002147200621627961,2.390285240191211,2.373992239865358
-0.002146350621627961,2.390285240191211,2.374325133673834
-0.002145500621627962,2.389949461807848,2.374325133673834
-0.002144650621627961,2.389277905041121,2.373659346056881
-0.002143800621627961,2.389613683424484,2.373992239865358
-0.002142950621627962,2.390285240191211,2.373992239865358
-0.002142100621627961,2.390285240191211,2.373659346056881
-0.002141250621627961,2.390285240191211,2.373659346056881
-0.002140400621627962,2.390285240191211,2.373659346056881
-0.002139550621627961,2.389613683424484,2.373659346056881
-0.002138700621627961,2.389949461807848,2.373992239865358
-0.002137850621627962,2.390285240191211,2.373659346056881
-0.002137000621627961,2.389949461807848,2.373659346056881
-0.002136150621627962,2.389613683424484,2.373659346056881
-0.002135300621627961,2.389949461807848,2.373659346056881
-0.002134450621627961,2.389949461807848,2.373992239865358
-0.002133600621627962,2.389277905041121,2.373992239865358
-0.002132750621627961,2.389949461807848,2.373992239865358
-0.002131900621627961,2.389949461807848,2.373659346056881
-0.002131050621627962,2.389949461807848,2.373659346056881
-0.002130200621627961,2.389949461807848,2.373659346056881
-0.002129350621627961,2.389949461807848,2.373659346056881
-0.002128500621627962,2.389949461807848,2.373992239865358
-0.002127650621627961,2.390285240191211,2.373992239865358
-0.002126800621627962,2.389613683424485,2.373992239865358
-0.002125950621627961,2.389613683424484,2.374658027482311
-0.002125100621627961,2.389277905041121,2.373992239865358
-0.002124250621627962,2.389613683424484,2.373659346056881
-0.002123400621627961,2.390285240191211,2.373992239865358
-0.002122550621627961,2.389613683424484,2.374325133673834
-0.002121700621627962,2.389613683424484,2.373992239865358
-0.002120850621627961,2.389277905041121,2.373659346056881
-0.002120000621627961,2.389949461807848,2.373326452248405
-0.002119150621627962,2.390285240191211,2.373659346056881
-0.002118300621627961,2.390285240191211,2.373326452248405
-0.002117450621627962,2.390285240191211,2.373659346056881
-0.002116600621627962,2.390285240191211,2.373659346056881
-0.002115750621627961,2.389613683424484,2.373992239865358
-0.002114900621627962,2.390285240191211,2.373659346056881
-0.002114050621627961,2.389949461807848,2.373659346056881
-0.002113200621627961,2.389613683424484,2.373326452248405
-0.002112350621627962,2.389949461807848,2.373659346056881
-0.002111500621627961,2.389613683424484,2.373326452248405
-0.002110650621627961,2.389949461807848,2.373659346056881
-0.002109800621627962,2.390285240191211,2.373992239865358
-0.002108950621627961,2.389949461807848,2.373659346056881
-0.002108100621627961,2.389613683424484,2.373326452248405
-0.002107250621627962,2.389613683424484,2.373326452248405
-0.002106400621627961,2.389613683424484,2.373659346056881
