LAB4/100mv_milo.csv

#Digilent WaveForms Oscilloscope Acquisition
#Device Name: Discovery2
#Serial Number: SN:210321A18A25
#Date Time: 2023-04-30 20:24:09.368
#Sample rate: 138696Hz
#Samples: 8192
#Trigger: Source: Channel 1 Type: Edge Condition: Rising Level: 0 V Hyst.: Auto HoldOff: 0 s
#Channel 1: Range: 500 mV/div Offset: -2 V Attenuation: 1 X Sample Mode: Average
#Channel 2: Range: 500 mV/div Offset: -2 V Attenuation: 1 X Sample Mode: Average
#Wavegen Channel 1: Running
#Mode: Simple
#Type: Square
#Frequency: 200 Hz
#Period: 5 ms
#Amplitude: 100 mV
#Offset: 2.5 V
#Symmetry: 50 %
#Phase: 0 °

Time (s),Channel 1 (V),Channel 2 (V)
-0.01878203021976121,2.388942126657758,2.365669894653446
-0.01877482021976121,2.389277905041121,2.366002788461922
-0.01876761021976121,2.388942126657758,2.365669894653446
-0.01876040021976121,2.389277905041121,2.365669894653446
-0.01875319021976121,2.389277905041121,2.365669894653446
-0.0187459802197612,2.389613683424484,2.365669894653446
-0.0187387702197612,2.389277905041121,2.365669894653446
-0.0187315602197612,2.389277905041121,2.366002788461922
-0.0187243502197612,2.388942126657758,2.366335682270398
-0.0187171402197612,2.388942126657758,2.365669894653446
-0.0187099302197612,2.389277905041121,2.365669894653446
-0.0187027202197612,2.389277905041121,2.365669894653446
-0.0186955102197612,2.389277905041121,2.365669894653446
-0.01868830021976121,2.388942126657758,2.365669894653446
-0.01868109021976121,2.389613683424484,2.366002788461922
-0.01867388021976121,2.389277905041121,2.366002788461922
-0.01866667021976121,2.389277905041121,2.366002788461922
-0.01865946021976121,2.389277905041121,2.365669894653446
-0.0186522502197612,2.389277905041121,2.365669894653446
-0.0186450402197612,2.389277905041121,2.366002788461922
-0.0186378302197612,2.389277905041121,2.366002788461922
-0.0186306202197612,2.389613683424484,2.365669894653446
-0.0186234102197612,2.389613683424484,2.366002788461922
-0.0186162002197612,2.389613683424484,2.366002788461922
-0.0186089902197612,2.389949461807847,2.365669894653446
-0.01860178021976121,2.388942126657758,2.366002788461922
-0.01859457021976121,2.388942126657758,2.366002788461922
-0.01858736021976121,2.389613683424484,2.366002788461922
-0.01858015021976121,2.389277905041121,2.366002788461922
-0.01857294021976121,2.389277905041121,2.366002788461922
-0.0185657302197612,2.389613683424484,2.366002788461922
-0.0185585202197612,2.388942126657758,2.365669894653446
-0.0185513102197612,2.388942126657758,2.365669894653446
-0.0185441002197612,2.389277905041121,2.366002788461922
-0.0185368902197612,2.389277905041121,2.365669894653446
-0.0185296802197612,2.389277905041121,2.366002788461922
-0.0185224702197612,2.388942126657758,2.366002788461922
-0.0185152602197612,2.388942126657758,2.366002788461921
-0.01850805021976121,2.388942126657758,2.365669894653446
-0.01850084021976121,2.389277905041121,2.366002788461922
-0.01849363021976121,2.389613683424484,2.366002788461922
-0.01848642021976121,2.389277905041121,2.366002788461922
-0.01847921021976121,2.389277905041121,2.366002788461922
-0.0184720002197612,2.389277905041121,2.366002788461922
-0.0184647902197612,2.389613683424484,2.366002788461922
-0.0184575802197612,2.389277905041121,2.365669894653446
-0.0184503702197612,2.389277905041121,2.365669894653446
-0.0184431602197612,2.388942126657758,2.365669894653446
-0.0184359502197612,2.389613683424484,2.365669894653446
-0.0184287402197612,2.389277905041121,2.366002788461922
-0.01842153021976121,2.389277905041121,2.366002788461922
-0.01841432021976121,2.389277905041121,2.365669894653446
-0.01840711021976121,2.389613683424484,2.366002788461922
-0.01839990021976121,2.388942126657758,2.365669894653446
-0.01839269021976121,2.389277905041121,2.365669894653446
-0.0183854802197612,2.388942126657758,2.366002788461922
-0.0183782702197612,2.389613683424484,2.365669894653446
-0.0183710602197612,2.389277905041121,2.366002788461922
-0.0183638502197612,2.389613683424484,2.365669894653446
-0.0183566402197612,2.388606348274395,2.366002788461922
-0.0183494302197612,2.389277905041121,2.365669894653446
-0.0183422202197612,2.388606348274394,2.365669894653446
-0.0183350102197612,2.388606348274394,2.365337000844969
-0.01832780021976121,2.388942126657758,2.365337000844969
-0.01832059021976121,2.388606348274394,2.365337000844969
-0.01831338021976121,2.388942126657758,2.365337000844969
-0.01830617021976121,2.389277905041121,2.365337000844969
-0.01829896021976121,2.388942126657758,2.365337000844969
-0.0182917502197612,2.389277905041121,2.365669894653446
-0.0182845402197612,2.389277905041121,2.365669894653446
-0.0182773302197612,2.389277905041121,2.365669894653446
-0.0182701202197612,2.389277905041121,2.365669894653446
-0.0182629102197612,2.388942126657758,2.365669894653446
-0.0182557002197612,2.389277905041121,2.365669894653446
-0.0182484902197612,2.388942126657758,2.366002788461922
-0.0182412802197612,2.388942126657758,2.366335682270398
-0.01823407021976121,2.389277905041121,2.365669894653446
-0.01822686021976121,2.388942126657758,2.365669894653446
-0.01821965021976121,2.388942126657758,2.365337000844969
-0.01821244021976121,2.388942126657758,2.365669894653446
-0.01820523021976121,2.388942126657758,2.365337000844969
-0.0181980202197612,2.389613683424484,2.365669894653446
-0.0181908102197612,2.389277905041121,2.365669894653446
-0.0181836002197612,2.388606348274395,2.365669894653446
-0.0181763902197612,2.389277905041121,2.365669894653446
-0.0181691802197612,2.388942126657758,2.365669894653446
-0.0181619702197612,2.389277905041121,2.365669894653446
-0.0181547602197612,2.388942126657758,2.365337000844969
-0.01814755021976121,2.389613683424484,2.365669894653446
-0.01814034021976121,2.389277905041121,2.365669894653446
-0.01813313021976121,2.388942126657758,2.365669894653446
-0.01812592021976121,2.388942126657758,2.365669894653446
-0.01811871021976121,2.388942126657758,2.365669894653446
-0.0181115002197612,2.388942126657758,2.365669894653446
-0.0181042902197612,2.388942126657758,2.365669894653446
-0.0180970802197612,2.389277905041121,2.365669894653446
-0.0180898702197612,2.388606348274394,2.365337000844969
-0.0180826602197612,2.388606348274394,2.365669894653446
-0.0180754502197612,2.388942126657758,2.365669894653446
-0.0180682402197612,2.388606348274394,2.365337000844969
-0.0180610302197612,2.388942126657758,2.365337000844969
-0.01805382021976121,2.388942126657758,2.365337000844969
-0.01804661021976121,2.389277905041121,2.365337000844969
-0.01803940021976121,2.389277905041121,2.365337000844969
-0.01803219021976121,2.388942126657758,2.365669894653446
-0.01802498021976121,2.388942126657758,2.365669894653446
-0.0180177702197612,2.388942126657758,2.365669894653446
-0.0180105602197612,2.388942126657758,2.365669894653446
-0.0180033502197612,2.388942126657758,2.365669894653446
-0.0179961402197612,2.388942126657758,2.365669894653446
-0.0179889302197612,2.388942126657758,2.365669894653446
-0.0179817202197612,2.389277905041121,2.365669894653446
-0.0179745102197612,2.389277905041121,2.365337000844969
-0.0179673002197612,2.388942126657757,2.365669894653446
-0.01796009021976121,2.388606348274394,2.365669894653446
-0.01795288021976121,2.388942126657758,2.365669894653446
-0.01794567021976121,2.389277905041121,2.365669894653446
-0.01793846021976121,2.388942126657758,2.365669894653446
-0.01793125021976121,2.389277905041121,2.365669894653446
-0.0179240402197612,2.388942126657758,2.365669894653446
-0.0179168302197612,2.388942126657758,2.365669894653446
-0.0179096202197612,2.389277905041121,2.365669894653446
-0.0179024102197612,2.389277905041121,2.365669894653446
-0.0178952002197612,2.388942126657758,2.365669894653446
-0.0178879902197612,2.389277905041121,2.366002788461922
-0.0178807802197612,2.388942126657758,2.366002788461922
-0.01787357021976121,2.388942126657758,2.365669894653446
-0.01786636021976121,2.388606348274394,2.365669894653446
-0.01785915021976121,2.389277905041121,2.365669894653446
-0.01785194021976121,2.389277905041121,2.366002788461922
-0.01784473021976121,2.389277905041121,2.365669894653446
-0.0178375202197612,2.388942126657758,2.365669894653446
-0.0178303102197612,2.388942126657758,2.365669894653446
-0.0178231002197612,2.389277905041121,2.365669894653446
-0.0178158902197612,2.389613683424484,2.365669894653446
-0.0178086802197612,2.388942126657758,2.365669894653446
-0.0178014702197612,2.388606348274394,2.365669894653446
-0.0177942602197612,2.388942126657758,2.365337000844969
-0.0177870502197612,2.389277905041121,2.365669894653445
-0.01777984021976121,2.388606348274394,2.365337000844969
-0.01777263021976121,2.388942126657758,2.365669894653446
-0.01776542021976121,2.388942126657758,2.365669894653446
-0.01775821021976121,2.388606348274394,2.365669894653446
-0.01775100021976121,2.388942126657758,2.365669894653446
-0.0177437902197612,2.388942126657758,2.365669894653446
-0.0177365802197612,2.388606348274395,2.365669894653446
-0.0177293702197612,2.389277905041121,2.365669894653446
-0.0177221602197612,2.388942126657758,2.365669894653446
-0.0177149502197612,2.388942126657758,2.365669894653446
-0.0177077402197612,2.389277905041121,2.365669894653446
-0.0177005302197612,2.389277905041121,2.366002788461922
-0.0176933202197612,2.389277905041121,2.366002788461921
-0.01768611021976121,2.388942126657758,2.365669894653446
-0.01767890021976121,2.389277905041121,2.365337000844969
-0.01767169021976121,2.388942126657758,2.365669894653446
-0.01766448021976121,2.389277905041121,2.365669894653446
-0.0176572702197612,2.389277905041121,2.365337000844969
-0.0176500602197612,2.389277905041121,2.365669894653446
-0.0176428502197612,2.389277905041121,2.366002788461921
-0.0176356402197612,2.389613683424484,2.365337000844969
-0.0176284302197612,2.389277905041121,2.366002788461922
-0.0176212202197612,2.389277905041121,2.366002788461922
-0.0176140102197612,2.388942126657758,2.366002788461922
-0.0176068002197612,2.389277905041121,2.366002788461922
-0.01759959021976121,2.388942126657758,2.366002788461922
-0.01759238021976121,2.389277905041121,2.365669894653446
-0.01758517021976121,2.389613683424484,2.365669894653446
-0.01757796021976121,2.388942126657758,2.365669894653446
-0.01757075021976121,2.389613683424484,2.366002788461922
-0.0175635402197612,2.389277905041121,2.366002788461922
-0.0175563302197612,2.389613683424484,2.366335682270398
-0.0175491202197612,2.389277905041121,2.366002788461922
-0.0175419102197612,2.389277905041121,2.366335682270398
-0.0175347002197612,2.389277905041121,2.366002788461922
-0.0175274902197612,2.389277905041121,2.366002788461922
-0.0175202802197612,2.389277905041121,2.366002788461922
-0.0175130702197612,2.388942126657758,2.365669894653446
-0.01750586021976121,2.388942126657758,2.366002788461922
-0.01749865021976121,2.389277905041121,2.366002788461922
-0.01749144021976121,2.388606348274394,2.365669894653446
-0.01748423021976121,2.388942126657758,2.365669894653446
-0.01747702021976121,2.388942126657758,2.365669894653446
-0.0174698102197612,2.388942126657758,2.365669894653446
-0.0174626002197612,2.388942126657758,2.366002788461922
-0.0174553902197612,2.388942126657758,2.365669894653446
-0.0174481802197612,2.388606348274394,2.365669894653446
-0.0174409702197612,2.388942126657758,2.365337000844969
-0.0174337602197612,2.388942126657758,2.365669894653446
-0.0174265502197612,2.388606348274394,2.365669894653446
-0.01741934021976121,2.388942126657758,2.365669894653446
-0.01741213021976121,2.388606348274394,2.365669894653446
-0.01740492021976121,2.388606348274394,2.365669894653446
-0.01739771021976121,2.388942126657758,2.365669894653446
-0.01739050021976121,2.388942126657758,2.365337000844969
-0.0173832902197612,2.389277905041121,2.365669894653446
-0.0173760802197612,2.388942126657758,2.365669894653446
-0.0173688702197612,2.388942126657758,2.366002788461922
-0.0173616602197612,2.388942126657758,2.365669894653446
-0.0173544502197612,2.389277905041121,2.365669894653446
-0.0173472402197612,2.389613683424484,2.365337000844969
-0.0173400302197612,2.388942126657758,2.365669894653446
-0.0173328202197612,2.388942126657758,2.365669894653446
-0.01732561021976121,2.389613683424484,2.365669894653446
-0.01731840021976121,2.389277905041121,2.365669894653446
-0.01731119021976121,2.389277905041121,2.366002788461922
-0.01730398021976121,2.388942126657758,2.366002788461922
-0.01729677021976121,2.388942126657758,2.365669894653446
-0.0172895602197612,2.388942126657758,2.365337000844969
-0.0172823502197612,2.389277905041121,2.365669894653446
-0.0172751402197612,2.389277905041121,2.365337000844969
-0.0172679302197612,2.389613683424484,2.366002788461922
-0.0172607202197612,2.389613683424484,2.365669894653446
-0.0172535102197612,2.388942126657758,2.366002788461922
-0.0172463002197612,2.388942126657758,2.366002788461922
-0.0172390902197612,2.388942126657758,2.366002788461922
-0.01723188021976121,2.388942126657758,2.366002788461922
-0.01722467021976121,2.389277905041121,2.366002788461922
-0.01721746021976121,2.389277905041121,2.366002788461922
-0.01721025021976121,2.388606348274394,2.365669894653446
-0.01720304021976121,2.388606348274394,2.365669894653446
-0.0171958302197612,2.388942126657758,2.365669894653446
-0.0171886202197612,2.388942126657758,2.365669894653446
-0.0171814102197612,2.388606348274394,2.365337000844969
-0.0171742002197612,2.388606348274394,2.365337000844969
-0.0171669902197612,2.388942126657758,2.365669894653446
-0.0171597802197612,2.388942126657758,2.365337000844969
-0.0171525702197612,2.388606348274394,2.365337000844969
-0.01714536021976121,2.388942126657758,2.365669894653446
-0.01713815021976121,2.389277905041121,2.365337000844969
-0.01713094021976121,2.388942126657758,2.365669894653446
-0.01712373021976121,2.389277905041121,2.365337000844969
-0.01711652021976121,2.388942126657758,2.365337000844969
-0.0171093102197612,2.388606348274394,2.365669894653446
-0.0171021002197612,2.389277905041121,2.366335682270398
-0.0170948902197612,2.389277905041121,2.365669894653446
-0.0170876802197612,2.388942126657758,2.365669894653446
-0.0170804702197612,2.388942126657758,2.366002788461922
-0.0170732602197612,2.389277905041121,2.365669894653446
-0.0170660502197612,2.388942126657758,2.365337000844969
-0.0170588402197612,2.388942126657758,2.365669894653446
-0.01705163021976121,2.389277905041121,2.365669894653446
-0.01704442021976121,2.389277905041121,2.365669894653446
-0.01703721021976121,2.388606348274394,2.365669894653446
-0.01703000021976121,2.389613683424484,2.366002788461922
-0.01702279021976121,2.389277905041121,2.366002788461922
-0.0170155802197612,2.388942126657758,2.366002788461922
-0.0170083702197612,2.389277905041121,2.366002788461922
-0.0170011602197612,2.388942126657758,2.365669894653446
-0.0169939502197612,2.389277905041121,2.366002788461922
-0.0169867402197612,2.389277905041121,2.366002788461922
-0.0169795302197612,2.388942126657758,2.365669894653446
-0.0169723202197612,2.388942126657758,2.365669894653446
-0.0169651102197612,2.388942126657758,2.365669894653446
-0.01695790021976121,2.389277905041121,2.365669894653446
-0.01695069021976121,2.388606348274394,2.365337000844969
-0.01694348021976121,2.388606348274394,2.366002788461922
-0.01693627021976121,2.388942126657758,2.365669894653446
-0.01692906021976121,2.389277905041121,2.366002788461922
-0.0169218502197612,2.388942126657758,2.365669894653446
-0.0169146402197612,2.389277905041121,2.365669894653446
-0.0169074302197612,2.388606348274394,2.365669894653446
-0.0169002202197612,2.388942126657758,2.365669894653446
-0.0168930102197612,2.388942126657758,2.365669894653446
-0.0168858002197612,2.388606348274394,2.365669894653446
-0.0168785902197612,2.388942126657758,2.365669894653446
-0.01687138021976121,2.388942126657758,2.365669894653446
-0.01686417021976121,2.389277905041121,2.365669894653446
-0.01685696021976121,2.546086410071819,2.381315903651841
-0.01684975021976121,2.588730264758969,2.439905213943704
-0.01684254021976121,2.588394486375606,2.491170860449085
-0.0168353302197612,2.588730264758969,2.523128666062829
-0.0168281202197612,2.588394486375606,2.541437825529041
-0.0168209102197612,2.588730264758969,2.55175753359181
-0.0168137002197612,2.588394486375606,2.556750940718956
-0.0168064902197612,2.588730264758969,2.559746984995244
-0.0167992802197612,2.588394486375606,2.56107856022915
-0.0167920702197612,2.588730264758969,2.562077241654579
-0.0167848602197612,2.588730264758969,2.562743029271532
-0.01677765021976121,2.589066043142332,2.563075923080008
-0.01677044021976121,2.588730264758969,2.563408816888485
-0.01676323021976121,2.588730264758969,2.563075923080008
-0.01675602021976121,2.589066043142332,2.563408816888485
-0.01674881021976121,2.589066043142332,2.563408816888485
-0.0167416002197612,2.589066043142332,2.563408816888485
-0.0167343902197612,2.589066043142332,2.563408816888485
-0.0167271802197612,2.589066043142332,2.563408816888485
-0.0167199702197612,2.588730264758969,2.563075923080008
-0.0167127602197612,2.589401821525696,2.563408816888485
-0.0167055502197612,2.589066043142332,2.563408816888485
-0.0166983402197612,2.588730264758969,2.563408816888485
-0.0166911302197612,2.589066043142332,2.563408816888485
-0.01668392021976121,2.588730264758969,2.563408816888485
-0.01667671021976121,2.588730264758969,2.563408816888485
-0.01666950021976121,2.589066043142332,2.563075923080008
-0.01666229021976121,2.589401821525696,2.563408816888485
-0.0166550802197612,2.589066043142332,2.563408816888485
-0.0166478702197612,2.589066043142332,2.563408816888485
-0.0166406602197612,2.589066043142332,2.563741710696961
-0.0166334502197612,2.589066043142332,2.563741710696961
-0.0166262402197612,2.588730264758969,2.563741710696961
-0.0166190302197612,2.589066043142332,2.563408816888485
-0.0166118202197612,2.589066043142332,2.563408816888485
-0.0166046102197612,2.589401821525696,2.563741710696961
-0.01659740021976121,2.589066043142332,2.563741710696961
-0.01659019021976121,2.588730264758969,2.563741710696961
-0.01658298021976121,2.588730264758969,2.563075923080008
-0.01657577021976121,2.588730264758969,2.563075923080008
-0.01656856021976121,2.588730264758969,2.563075923080008
-0.0165613502197612,2.589066043142332,2.563408816888485
-0.0165541402197612,2.588730264758969,2.563408816888485
-0.0165469302197612,2.589066043142332,2.563408816888485
-0.0165397202197612,2.588730264758969,2.563075923080009
-0.0165325102197612,2.589066043142332,2.563741710696961
-0.0165253002197612,2.589401821525696,2.563741710696961
-0.0165180902197612,2.589401821525696,2.563741710696961
-0.0165108802197612,2.589401821525696,2.563741710696961
-0.01650367021976121,2.589401821525696,2.563741710696961
-0.01649646021976121,2.588730264758969,2.563741710696961
-0.01648925021976121,2.589066043142332,2.563741710696961
-0.01648204021976121,2.589066043142332,2.563408816888485
-0.01647483021976121,2.589066043142332,2.563741710696961
-0.0164676202197612,2.588730264758969,2.563408816888485
-0.0164604102197612,2.589066043142332,2.563408816888485
-0.0164532002197612,2.588730264758969,2.563408816888485
-0.0164459902197612,2.589066043142332,2.563741710696961
-0.0164387802197612,2.588730264758969,2.563408816888485
-0.0164315702197612,2.588730264758969,2.563408816888485
-0.0164243602197612,2.589066043142332,2.563408816888485
-0.01641715021976121,2.589066043142332,2.563408816888485
-0.01640994021976121,2.589066043142332,2.563408816888485
-0.01640273021976121,2.589066043142332,2.563408816888485
-0.01639552021976121,2.588730264758969,2.563408816888485
-0.01638831021976121,2.588730264758969,2.563741710696961
-0.0163811002197612,2.589066043142332,2.563408816888485
-0.0163738902197612,2.589066043142332,2.563408816888485
-0.0163666802197612,2.589066043142332,2.563408816888485
-0.0163594702197612,2.589066043142332,2.563408816888485
-0.0163522602197612,2.589066043142332,2.563408816888485
-0.0163450502197612,2.588730264758969,2.563075923080008
-0.0163378402197612,2.588730264758969,2.563408816888485
-0.0163306302197612,2.589066043142332,2.563408816888485
-0.01632342021976121,2.589066043142332,2.563408816888485
-0.01631621021976121,2.588730264758969,2.563408816888485
