LAB4/1V_MILO.csv

#Digilent WaveForms Oscilloscope Acquisition
#Device Name: Discovery2
#Serial Number: SN:210321A18A25
#Date Time: 2023-04-30 20:31:55.077
#Sample rate: 1.20482e+06Hz
#Samples: 8192
#Trigger: Source: Channel 1 Type: Edge Condition: Rising Level: 2.5 V Hyst.: Auto HoldOff: 0 s
#Channel 1: Range: 500 mV/div Offset: -2 V Attenuation: 1 X Sample Mode: Average
#Channel 2: Range: 500 mV/div Offset: -2 V Attenuation: 1 X Sample Mode: Average
#Wavegen Channel 1: Running
#Mode: Simple
#Type: Square
#Frequency: 200 Hz
#Period: 5 ms
#Amplitude: 1 V
#Offset: 2.5 V
#Symmetry: 50 %
#Phase: 0 °

Time (s),Channel 1 (V),Channel 2 (V)
-0.004452785749455719,3.48895211055619,3.460557630732645
-0.004451955749455718,3.489623667322917,3.459891843115692
-0.004451125749455719,3.489287888939554,3.460557630732644
-0.004450295749455719,3.489623667322917,3.460224736924168
-0.004449465749455719,3.489287888939554,3.460224736924168
-0.004448635749455719,3.488616332172827,3.460224736924168
-0.004447805749455719,3.488616332172827,3.460224736924168
-0.004446975749455719,3.48895211055619,3.459558949307215
-0.004446145749455719,3.488616332172827,3.460224736924168
-0.004445315749455719,3.48895211055619,3.460224736924168
-0.004444485749455719,3.489623667322917,3.460224736924168
-0.004443655749455719,3.489623667322917,3.459558949307216
-0.004442825749455719,3.489623667322917,3.459558949307215
-0.004441995749455719,3.48895211055619,3.460224736924168
-0.004441165749455718,3.48895211055619,3.460557630732644
-0.004440335749455719,3.48895211055619,3.459891843115692
-0.004439505749455719,3.488616332172827,3.460224736924168
-0.004438675749455718,3.48895211055619,3.460224736924168
-0.004437845749455719,3.48895211055619,3.460224736924168
-0.004437015749455719,3.488280553789464,3.459891843115692
-0.004436185749455718,3.488280553789464,3.459891843115692
-0.004435355749455719,3.488616332172827,3.459558949307215
-0.004434525749455719,3.488616332172827,3.459891843115692
-0.004433695749455718,3.488280553789464,3.459891843115692
-0.004432865749455719,3.488616332172827,3.460224736924168
-0.004432035749455719,3.489287888939554,3.460224736924168
-0.004431205749455719,3.489287888939554,3.459891843115692
-0.004430375749455719,3.488952110556191,3.460224736924168
-0.004429545749455719,3.489287888939554,3.460224736924168
-0.004428715749455719,3.489287888939554,3.459891843115692
-0.004427885749455719,3.489287888939554,3.460557630732644
-0.004427055749455719,3.488616332172827,3.460557630732645
-0.004426225749455719,3.4879447754061,3.460224736924168
-0.004425395749455718,3.487944775406101,3.459891843115692
-0.004424565749455719,3.48895211055619,3.460224736924168
-0.004423735749455719,3.489959445706281,3.459891843115692
-0.004422905749455718,3.489623667322917,3.459891843115692
-0.004422075749455719,3.489623667322917,3.460224736924168
-0.004421245749455719,3.489287888939554,3.460224736924168
-0.004420415749455718,3.48895211055619,3.459891843115692
-0.004419585749455719,3.488280553789464,3.460224736924168
-0.004418755749455719,3.489287888939554,3.459891843115692
-0.004417925749455718,3.489287888939554,3.459891843115692
-0.004417095749455719,3.489287888939554,3.459558949307215
-0.004416265749455719,3.489287888939554,3.459558949307215
-0.004415435749455719,3.48895211055619,3.460224736924168
-0.004414605749455719,3.488616332172827,3.460224736924168
-0.004413775749455719,3.48895211055619,3.460224736924168
-0.004412945749455719,3.488616332172827,3.460224736924168
-0.004412115749455719,3.489287888939554,3.459891843115692
-0.004411285749455719,3.489287888939554,3.459891843115692
-0.004410455749455719,3.48895211055619,3.459558949307215
-0.004409625749455719,3.489287888939554,3.459558949307215
-0.004408795749455719,3.489287888939554,3.460224736924168
-0.004407965749455719,3.48895211055619,3.460224736924168
-0.004407135749455718,3.489287888939554,3.459891843115692
-0.004406305749455719,3.48895211055619,3.460224736924168
-0.004405475749455719,3.48895211055619,3.459558949307215
-0.004404645749455718,3.48895211055619,3.459226055498739
-0.004403815749455719,3.48895211055619,3.459558949307215
-0.004402985749455719,3.488280553789464,3.459558949307215
-0.004402155749455718,3.488280553789464,3.459891843115692
-0.004401325749455719,3.48895211055619,3.459891843115692
-0.004400495749455719,3.489287888939554,3.460224736924168
-0.004399665749455718,3.489623667322917,3.459891843115692
-0.004398835749455719,3.488616332172827,3.45922605549874
-0.004398005749455719,3.488280553789464,3.459558949307215
-0.004397175749455719,3.488280553789464,3.459558949307215
-0.004396345749455719,3.488616332172827,3.459891843115691
-0.004395515749455719,3.48895211055619,3.460224736924168
-0.004394685749455719,3.48895211055619,3.460224736924168
-0.004393855749455719,3.488280553789464,3.459891843115692
-0.004393025749455719,3.488616332172827,3.459891843115692
-0.004392195749455719,3.488616332172827,3.459891843115692
-0.004391365749455718,3.488616332172827,3.459891843115692
-0.004390535749455719,3.489287888939554,3.460224736924168
-0.004389705749455719,3.488616332172827,3.459891843115692
-0.004388875749455718,3.488616332172827,3.459558949307215
-0.004388045749455719,3.488616332172827,3.459891843115692
-0.004387215749455719,3.48895211055619,3.459891843115692
-0.004386385749455718,3.489287888939554,3.459558949307215
-0.004385555749455719,3.489287888939554,3.459891843115692
-0.004384725749455719,3.48895211055619,3.459891843115692
-0.004383895749455718,3.48895211055619,3.459558949307215
-0.004383065749455719,3.489287888939554,3.459891843115692
-0.004382235749455719,3.48895211055619,3.460224736924168
-0.004381405749455719,3.489623667322917,3.460224736924168
-0.004380575749455719,3.489287888939554,3.460224736924168
-0.004379745749455719,3.489623667322917,3.460224736924168
-0.004378915749455719,3.489623667322917,3.459891843115692
-0.004378085749455719,3.489623667322917,3.460224736924168
-0.004377255749455719,3.489287888939554,3.460224736924168
-0.004376425749455719,3.488616332172827,3.460557630732645
-0.004375595749455719,3.48895211055619,3.460224736924169
-0.004374765749455719,3.488616332172827,3.459891843115692
-0.004373935749455719,3.48895211055619,3.460224736924168
-0.004373105749455718,3.489623667322917,3.459891843115692
-0.004372275749455719,3.489287888939554,3.459558949307215
-0.004371445749455719,3.489287888939554,3.459558949307215
-0.004370615749455718,3.48895211055619,3.459558949307215
-0.004369785749455719,3.488616332172827,3.459558949307215
-0.004368955749455719,3.48895211055619,3.459226055498739
-0.004368125749455718,3.488616332172827,3.459891843115692
-0.004367295749455719,3.48895211055619,3.460557630732644
-0.004366465749455719,3.489287888939554,3.459891843115692
-0.004365635749455718,3.48895211055619,3.460224736924168
-0.004364805749455719,3.489623667322916,3.460890524541121
-0.004363975749455719,3.488616332172827,3.460224736924169
-0.004363145749455719,3.489623667322917,3.460224736924168
-0.004362315749455719,3.489623667322917,3.460224736924168
-0.004361485749455719,3.489623667322917,3.460224736924168
-0.004360655749455719,3.489623667322917,3.460224736924168
-0.004359825749455719,3.489287888939554,3.459891843115692
-0.004358995749455719,3.48895211055619,3.459891843115692
-0.004358165749455719,3.488616332172827,3.460224736924168
-0.004357335749455718,3.488616332172827,3.460557630732645
-0.004356505749455719,3.489287888939554,3.460557630732645
-0.004355675749455719,3.489287888939554,3.460224736924168
-0.004354845749455718,3.489287888939554,3.459891843115692
-0.004354015749455719,3.489287888939554,3.460224736924168
-0.004353185749455719,3.489287888939554,3.459891843115692
-0.004352355749455718,3.489287888939554,3.460224736924168
-0.004351525749455719,3.48995944570628,3.460224736924168
-0.004350695749455719,3.489623667322917,3.460557630732645
-0.004349865749455718,3.48895211055619,3.460224736924168
-0.004349035749455719,3.48895211055619,3.460557630732645
-0.004348205749455719,3.488616332172827,3.460557630732645
-0.004347375749455719,3.48895211055619,3.460224736924168
-0.004346545749455719,3.489623667322916,3.459891843115692
-0.004345715749455719,3.489623667322917,3.460224736924168
-0.004344885749455719,3.489287888939554,3.460557630732645
-0.004344055749455719,3.488952110556191,3.459891843115692
-0.004343225749455719,3.488280553789464,3.459558949307215
-0.004342395749455719,3.488616332172827,3.459226055498739
-0.004341565749455719,3.488280553789464,3.459558949307215
-0.004340735749455719,3.488616332172827,3.459558949307215
-0.004339905749455719,3.489287888939554,3.459558949307215
-0.004339075749455718,3.488280553789464,3.459558949307215
-0.004338245749455719,3.48895211055619,3.460224736924168
-0.004337415749455719,3.489287888939554,3.460224736924168
-0.004336585749455718,3.489623667322917,3.460224736924168
-0.004335755749455719,3.489623667322917,3.460224736924168
-0.004334925749455719,3.489287888939554,3.460224736924168
-0.004334095749455718,3.489287888939554,3.459891843115692
-0.004333265749455719,3.48895211055619,3.459891843115692
-0.004332435749455719,3.488616332172827,3.460224736924168
-0.004331605749455718,3.48895211055619,3.459891843115692
-0.004330775749455719,3.48895211055619,3.459891843115692
-0.004329945749455719,3.48895211055619,3.459891843115692
-0.004329115749455719,3.489287888939554,3.459891843115692
-0.004328285749455719,3.488952110556191,3.459558949307216
-0.004327455749455719,3.48895211055619,3.460224736924168
-0.004326625749455719,3.489287888939554,3.460224736924168
-0.004325795749455719,3.489287888939554,3.460557630732644
-0.004324965749455719,3.489287888939554,3.460224736924168
-0.004324135749455719,3.489287888939554,3.459891843115692
-0.004323305749455718,3.488280553789464,3.459891843115692
-0.004322475749455719,3.488616332172827,3.460224736924168
-0.004321645749455719,3.48895211055619,3.460224736924168
-0.004320815749455718,3.489287888939554,3.460224736924168
-0.004319985749455719,3.48895211055619,3.460224736924168
-0.004319155749455719,3.489287888939554,3.460224736924168
-0.004318325749455718,3.489287888939554,3.460557630732645
-0.004317495749455719,3.48895211055619,3.460557630732645
-0.004316665749455719,3.488616332172827,3.460224736924168
-0.004315835749455718,3.489287888939554,3.460557630732645
-0.004315005749455719,3.48895211055619,3.460224736924168
-0.004314175749455719,3.488616332172827,3.460224736924168
-0.004313345749455719,3.489287888939554,3.460224736924168
-0.004312515749455719,3.488952110556191,3.460557630732644
-0.004311685749455719,3.489287888939554,3.460224736924168
-0.004310855749455719,3.48895211055619,3.460224736924168
-0.004310025749455719,3.489623667322916,3.460224736924168
-0.004309195749455719,3.488616332172827,3.460557630732645
-0.004308365749455719,3.48895211055619,3.460557630732645
-0.004307535749455718,3.488616332172827,3.460224736924168
-0.004306705749455719,3.488616332172827,3.459891843115692
-0.004305875749455719,3.48895211055619,3.459891843115692
-0.004305045749455718,3.489287888939554,3.460224736924168
-0.004304215749455719,3.48895211055619,3.460224736924168
-0.004303385749455719,3.489623667322917,3.460224736924168
-0.004302555749455718,3.488616332172827,3.460224736924168
-0.004301725749455719,3.488616332172827,3.460224736924168
-0.004300895749455719,3.488616332172827,3.460224736924168
-0.004300065749455718,3.48895211055619,3.459891843115692
-0.004299235749455719,3.489287888939554,3.459891843115692
-0.004298405749455719,3.489623667322917,3.459891843115692
-0.004297575749455718,3.489623667322917,3.459558949307215
-0.004296745749455719,3.488616332172827,3.459891843115692
-0.004295915749455719,3.48895211055619,3.459891843115692
-0.004295085749455719,3.489287888939554,3.459558949307215
-0.004294255749455719,3.489287888939554,3.459891843115691
-0.004293425749455719,3.489287888939554,3.460224736924168
-0.004292595749455719,3.489623667322917,3.459891843115692
-0.004291765749455719,3.489287888939554,3.460224736924168
-0.004290935749455719,3.489287888939554,3.460224736924168
-0.004290105749455719,3.489623667322917,3.459891843115692
-0.004289275749455718,3.48895211055619,3.460224736924168
-0.004288445749455719,3.48895211055619,3.459891843115692
-0.004287615749455719,3.488616332172827,3.460224736924168
-0.004286785749455718,3.488616332172827,3.460224736924168
-0.004285955749455719,3.488616332172827,3.460224736924168
-0.004285125749455719,3.489287888939554,3.459891843115692
-0.004284295749455718,3.489623667322917,3.459891843115692
-0.004283465749455719,3.489287888939554,3.459558949307215
-0.004282635749455719,3.48895211055619,3.459558949307215
-0.004281805749455718,3.48895211055619,3.459891843115692
-0.004280975749455719,3.489287888939554,3.459891843115692
-0.004280145749455719,3.48895211055619,3.459891843115692
-0.004279315749455719,3.48895211055619,3.459891843115692
-0.004278485749455719,3.48895211055619,3.459891843115692
-0.004277655749455719,3.488616332172827,3.459891843115692
-0.004276825749455719,3.489623667322917,3.459891843115692
-0.004275995749455719,3.489287888939554,3.460224736924168
-0.004275165749455719,3.489623667322917,3.460224736924168
-0.004274335749455719,3.488616332172827,3.460224736924168
-0.004273505749455718,3.48895211055619,3.460224736924168
-0.004272675749455719,3.48895211055619,3.459891843115692
-0.004271845749455719,3.48895211055619,3.459891843115692
-0.004271015749455718,3.489287888939554,3.460224736924168
-0.004270185749455719,3.48995944570628,3.460224736924168
-0.004269355749455719,3.489287888939554,3.460224736924168
-0.004268525749455718,3.489287888939554,3.460224736924168
-0.004267695749455719,3.489287888939554,3.460224736924168
-0.004266865749455719,3.48895211055619,3.460224736924168
-0.004266035749455718,3.489287888939554,3.459891843115692
-0.004265205749455719,3.489623667322917,3.460224736924168
-0.004264375749455719,3.488952110556191,3.460224736924168
-0.004263545749455719,3.48895211055619,3.460224736924168
-0.004262715749455719,3.48895211055619,3.460224736924168
-0.004261885749455719,3.489287888939554,3.460224736924168
-0.004261055749455719,3.48895211055619,3.459558949307215
-0.004260225749455719,3.48895211055619,3.459558949307215
-0.004259395749455719,3.489287888939554,3.459891843115692
-0.004258565749455719,3.489623667322917,3.460224736924168
-0.004257735749455719,3.488952110556191,3.460557630732644
-0.004256905749455719,3.489623667322916,3.460224736924168
-0.004256075749455719,3.489623667322917,3.460224736924168
-0.004255245749455718,3.489623667322917,3.460224736924168
-0.004254415749455719,3.489287888939554,3.460224736924168
-0.004253585749455719,3.489287888939554,3.460224736924168
-0.004252755749455718,3.489287888939554,3.460224736924168
-0.004251925749455719,3.489287888939554,3.460557630732645
-0.004251095749455719,3.488616332172827,3.460224736924168
-0.004250265749455718,3.488616332172827,3.460224736924168
-0.004249435749455719,3.488280553789464,3.459891843115692
-0.004248605749455719,3.488616332172827,3.460224736924168
-0.004247775749455718,3.48895211055619,3.460224736924168
-0.004246945749455719,3.48895211055619,3.460224736924168
-0.004246115749455719,3.488616332172827,3.460224736924168
-0.004245285749455719,3.4879447754061,3.460224736924168
-0.004244455749455719,3.488952110556189,3.459891843115692
-0.004243625749455719,3.48895211055619,3.459558949307215
-0.004242795749455719,3.48895211055619,3.459891843115692
-0.004241965749455719,3.48895211055619,3.459558949307216
-0.004241135749455719,3.48895211055619,3.459891843115692
-0.004240305749455719,3.48895211055619,3.460224736924168
-0.004239475749455718,3.489287888939554,3.460557630732645
-0.004238645749455719,3.48895211055619,3.460557630732645
-0.004237815749455719,3.489287888939554,3.459891843115692
-0.004236985749455718,3.48895211055619,3.459891843115692
-0.004236155749455719,3.48895211055619,3.460224736924168
-0.004235325749455719,3.48895211055619,3.460224736924168
-0.004234495749455718,3.489287888939554,3.460224736924168
-0.004233665749455719,3.489623667322917,3.460224736924168
-0.004232835749455719,3.488952110556191,3.459891843115692
-0.004232005749455718,3.489287888939554,3.459891843115692
-0.004231175749455719,3.48895211055619,3.460224736924168
-0.004230345749455719,3.48895211055619,3.460224736924168
-0.004229515749455719,3.48895211055619,3.460224736924168
-0.004228685749455719,3.488616332172827,3.460557630732645
-0.004227855749455719,3.487944775406101,3.460557630732645
-0.004227025749455719,3.48895211055619,3.460224736924168
-0.004226195749455719,3.48895211055619,3.460224736924168
-0.004225365749455719,3.48895211055619,3.460557630732645
-0.004224535749455719,3.488616332172827,3.460224736924168
-0.004223705749455719,3.48895211055619,3.459891843115692
-0.004222875749455719,3.48895211055619,3.460224736924168
-0.004222045749455719,3.488616332172827,3.459891843115692
-0.004221215749455718,3.489287888939554,3.460224736924168
-0.004220385749455719,3.489287888939554,3.460557630732645
-0.004219555749455719,3.488616332172827,3.460224736924168
-0.004218725749455718,3.488616332172827,3.460224736924168
-0.004217895749455719,3.48895211055619,3.460557630732645
-0.004217065749455719,3.489287888939554,3.459891843115692
-0.004216235749455718,3.48895211055619,3.459891843115692
-0.004215405749455719,3.48895211055619,3.460224736924168
-0.004214575749455719,3.48895211055619,3.460224736924168
-0.004213745749455718,3.48895211055619,3.460224736924168
-0.004212915749455719,3.48895211055619,3.460224736924168
-0.004212085749455719,3.489287888939554,3.459891843115692
-0.004211255749455719,3.489623667322917,3.459891843115692
-0.004210425749455719,3.489623667322917,3.460224736924168
-0.004209595749455719,3.489623667322917,3.460557630732645
-0.004208765749455719,3.489287888939554,3.460224736924168
-0.004207935749455719,3.489287888939554,3.460224736924168
-0.004207105749455719,3.489623667322917,3.460224736924168
-0.004206275749455719,3.48895211055619,3.460224736924168
-0.004205445749455718,3.489623667322917,3.460224736924168
-0.004204615749455719,3.489287888939554,3.460224736924168
-0.004203785749455719,3.488616332172827,3.460224736924168
-0.004202955749455718,3.48895211055619,3.459558949307215
-0.004202125749455719,3.48895211055619,3.459891843115692
-0.004201295749455719,3.48895211055619,3.459891843115692
-0.004200465749455718,3.48895211055619,3.460224736924168
-0.004199635749455719,3.489623667322916,3.460224736924168
-0.004198805749455719,3.489959445706281,3.460224736924168
-0.004197975749455718,3.489623667322917,3.459891843115692
-0.004197145749455719,3.488952110556191,3.460557630732644
-0.004196315749455719,3.488616332172827,3.460224736924168
-0.004195485749455719,3.48895211055619,3.459891843115692
-0.004194655749455719,3.489623667322916,3.460224736924168
-0.004193825749455719,3.489287888939554,3.460224736924168
-0.004192995749455719,3.489287888939554,3.460224736924168
-0.004192165749455719,3.488616332172827,3.459891843115692
-0.004191335749455719,3.48895211055619,3.459891843115692
-0.004190505749455719,3.488616332172827,3.459891843115692
-0.004189675749455719,3.489287888939554,3.459891843115692
-0.004188845749455719,3.48895211055619,3.459558949307215
-0.004188015749455719,3.48895211055619,3.459891843115692
-0.004187185749455718,3.488616332172827,3.459891843115692
-0.004186355749455719,3.48895211055619,3.459891843115692
-0.004185525749455719,3.488616332172827,3.460224736924168
-0.004184695749455718,3.488616332172827,3.460224736924168
-0.004183865749455719,3.488616332172827,3.459891843115692
-0.004183035749455719,3.48895211055619,3.460224736924168
-0.004182205749455718,3.48895211055619,3.460224736924168
-0.004181375749455719,3.488616332172827,3.460224736924168
-0.004180545749455719,3.48895211055619,3.460224736924168
-0.004179715749455718,3.489287888939554,3.459891843115692
-0.004178885749455719,3.489287888939554,3.460224736924168
-0.004178055749455719,3.48895211055619,3.460224736924168
-0.004177225749455719,3.48895211055619,3.459891843115692
-0.004176395749455719,3.489623667322916,3.459891843115692
-0.004175565749455719,3.489287888939554,3.460224736924168
-0.004174735749455719,3.488280553789464,3.460557630732645
