LAB4/2V_milo2.csv

#Digilent WaveForms Oscilloscope Acquisition
#Device Name: Discovery2
#Serial Number: SN:210321A18A25
#Date Time: 2023-04-30 20:34:44.089
#Sample rate: 1.17647e+06Hz
#Samples: 8192
#Trigger: Source: Channel 1 Type: Edge Condition: Rising Level: 2.5 V Hyst.: Auto HoldOff: 0 s
#Channel 1: Range: 500 mV/div Offset: -2 V Attenuation: 1 X Sample Mode: Average
#Channel 2: Range: 500 mV/div Offset: -2 V Attenuation: 1 X Sample Mode: Average
#Wavegen Channel 1: Running
#Mode: Simple
#Type: Square
#Frequency: 500 Hz
#Period: 2 ms
#Amplitude: 2 V
#Offset: 2.5 V
#Symmetry: 50 %
#Phase: 0 °

Time (s),Channel 1 (V),Channel 2 (V)
-0.002389230889449068,0.4857502497541202,0.4095858760455475
-0.002388380889449069,0.485078692987394,0.4092529822370715
-0.002387530889449069,0.4854144713707565,0.4092529822370712
-0.002386680889449069,0.484407136220667,0.4092529822370712
-0.002385830889449068,0.4850786929873934,0.4082543008116417
-0.002384980889449068,0.4854144713707567,0.4079214070031651
-0.002384130889449068,0.4857502497541202,0.4075885131946886
-0.002383280889449069,0.4857502497541202,0.4072556193862124
-0.002382430889449069,0.4860860281374833,0.4069227255777358
-0.002381580889449069,0.4857502497541203,0.4065898317692593
-0.002380730889449068,0.4847429146040301,0.4065898317692591
-0.002379880889449068,0.4847429146040301,0.4065898317692591
-0.002379030889449069,0.4847429146040301,0.4055911503438305
-0.002378180889449069,0.4857502497541197,0.4055911503438296
-0.002377330889449069,0.4850786929873937,0.4052582565353532
-0.002376480889449068,0.4854144713707567,0.4055911503438296
-0.002375630889449068,0.4857502497541202,0.4052582565353531
-0.002374780889449068,0.4854144713707567,0.4042595751099236
-0.002373930889449069,0.48575024975412,0.4042595751099236
-0.002373080889449069,0.4860860281374833,0.4039266813014474
-0.002372230889449069,0.4857502497541203,0.4035937874929709
-0.002371380889449068,0.4854144713707567,0.4035937874929707
-0.002370530889449068,0.4850786929873934,0.4035937874929707
-0.002369680889449068,0.4860860281374833,0.4025951060675411
-0.002368830889449069,0.4857502497541203,0.4022622122590648
-0.002367980889449069,0.4854144713707568,0.4025951060675411
-0.002367130889449068,0.4857502497541202,0.4019293184505881
-0.002366280889449068,0.4857502497541202,0.4015964246421118
-0.002365430889449068,0.4860860281374835,0.4012635308336352
-0.002364580889449069,0.4857502497541205,0.4012635308336352
-0.002363730889449069,0.4854144713707568,0.4009306370251588
-0.002362880889449069,0.48575024975412,0.400264849408206
-0.002362030889449068,0.4857502497541202,0.4002648494082057
-0.002361180889449068,0.4857502497541202,0.4002648494082057
-0.002360330889449068,0.4854144713707567,0.3995990617912527
-0.002359480889449069,0.4854144713707567,0.3992661679827764
-0.002358630889449069,0.4847429146040304,0.3986003803658234
-0.002357780889449069,0.4854144713707563,0.3986003803658231
-0.002356930889449068,0.4854144713707567,0.3986003803658231
-0.002356080889449068,0.4854144713707567,0.3982674865573468
-0.002355230889449069,0.4860860281374829,0.3976016989403943
-0.002354380889449069,0.4857502497541203,0.3979345927488701
-0.002353530889449069,0.4850786929873937,0.3976016989403938
-0.002352680889449068,0.4854144713707567,0.3972688051319173
-0.002351830889449068,0.4857502497541202,0.3969359113234407
-0.002350980889449068,0.4857502497541202,0.3966030175149642
-0.002350130889449069,0.4860860281374833,0.396270123706488
-0.002349280889449069,0.485414471370757,0.395604336089535
-0.002348430889449069,0.48575024975412,0.3952714422810583
-0.002347580889449068,0.4857502497541202,0.3946056546641052
-0.002346730889449068,0.4857502497541202,0.3946056546641052
-0.002345880889449069,0.4857502497541202,0.3946056546641052
-0.002345030889449069,0.4857502497541202,0.3939398670471526
-0.002344180889449069,0.4857502497541202,0.3932740794301995
-0.002343330889449068,0.4857502497541202,0.3936069732386758
-0.002342480889449068,0.4857502497541202,0.3929411856217229
-0.002341630889449068,0.486421806520847,0.3926082918132463
-0.002340780889449069,0.486421806520847,0.3929411856217227
-0.002339930889449069,0.486421806520847,0.3926082918132465
-0.002339080889449069,0.4867575849042101,0.3922753980047699
-0.002338230889449068,0.486421806520847,0.3912767165793403
-0.002337380889449068,0.4860860281374835,0.3912767165793403
-0.002336530889449069,0.4857502497541205,0.390943822770864
-0.002335680889449069,0.4857502497541202,0.3906109289623875
-0.002334830889449069,0.4860860281374833,0.3906109289623874
-0.002333980889449068,0.4854144713707567,0.3906109289623874
-0.002333130889449068,0.4857502497541202,0.3902780351539108
-0.002332280889449068,0.4857502497541202,0.3906109289623874
-0.002331430889449069,0.4860860281374833,0.3896122475369583
-0.002330580889449069,0.4860860281374835,0.388946459920005
-0.002329730889449069,0.485414471370757,0.3882806723030521
-0.002328880889449068,0.4860860281374835,0.3882806723030519
-0.002328030889449068,0.4867575849042103,0.3886135661115284
-0.002327180889449069,0.4864218065208473,0.3882806723030521
-0.002326330889449069,0.4867575849042101,0.3879477784945755
-0.002325480889449069,0.4864218065208472,0.3872819908776227
-0.002324630889449068,0.4860860281374835,0.3869490970691458
-0.002323780889449068,0.486421806520847,0.3869490970691458
-0.002322930889449068,0.4857502497541202,0.3866162032606693
-0.002322080889449069,0.4850786929873937,0.3859504156437166
-0.002321230889449069,0.4864218065208464,0.3859504156437163
-0.002320380889449069,0.4860860281374836,0.3852846280267637
-0.002319530889449068,0.4857502497541202,0.3852846280267634
-0.002318680889449068,0.4857502497541202,0.3852846280267634
-0.002317830889449068,0.4854144713707567,0.3849517342182867
-0.002316980889449069,0.4854144713707567,0.3846188404098105
-0.002316130889449069,0.4850786929873935,0.3849517342182867
-0.002315280889449069,0.4860860281374835,0.3842859466013337
-0.002314430889449068,0.4860860281374835,0.3839530527928574
-0.002313580889449068,0.4860860281374835,0.3836201589843808
-0.002312730889449069,0.4860860281374835,0.3829543713674285
-0.002311880889449069,0.48675758490421,0.3829543713674279
-0.002311030889449069,0.4857502497541206,0.3826214775589515
-0.002310180889449068,0.4860860281374835,0.3826214775589514
-0.002309330889449068,0.4860860281374835,0.3822885837504748
-0.002308480889449068,0.4860860281374835,0.3819556899419985
-0.002307630889449069,0.4860860281374835,0.3812899023250456
-0.002306780889449069,0.4857502497541203,0.3809570085165689
-0.002305930889449069,0.4860860281374833,0.3809570085165688
-0.002305080889449068,0.4857502497541202,0.3806241147080924
-0.002304230889449068,0.4850786929873934,0.3802912208996159
-0.002303380889449069,0.4854144713707563,0.3802912208996159
-0.002302530889449069,0.4850786929873935,0.3802912208996159
-0.002301680889449069,0.4857502497541198,0.3796254332826632
-0.002300830889449068,0.486421806520847,0.3792925394741864
-0.002299980889449068,0.4860860281374835,0.3792925394741864
-0.002299130889449068,0.4860860281374835,0.3789596456657098
-0.002298280889449069,0.48675758490421,0.3789596456657098
-0.002297430889449069,0.4867575849042103,0.3782938580487572
-0.002296580889449069,0.4864218065208472,0.3782938580487569
-0.002295730889449068,0.4860860281374835,0.3776280704318038
-0.002294880889449068,0.4857502497541202,0.3772951766233275
-0.002294030889449069,0.4857502497541202,0.3769622828148512
-0.002293180889449069,0.4854144713707568,0.3769622828148509
-0.002292330889449069,0.48575024975412,0.3769622828148509
-0.002291480889449068,0.4850786929873934,0.376296495197898
-0.002290630889449068,0.4857502497541202,0.376296495197898
-0.002289780889449068,0.4857502497541202,0.376296495197898
-0.002288930889449069,0.4854144713707568,0.3759636013894216
-0.002288080889449069,0.48575024975412,0.3759636013894214
-0.002287230889449069,0.4860860281374833,0.375630707580945
-0.002286380889449068,0.4860860281374835,0.3752978137724685
-0.002285530889449068,0.4860860281374835,0.3749649199639919
-0.002284680889449069,0.4857502497541205,0.3749649199639919
-0.002283830889449069,0.4857502497541202,0.3746320261555156
-0.002282980889449069,0.4860860281374833,0.3736333447300864
-0.002282130889449068,0.4860860281374835,0.3733004509216094
-0.002281280889449068,0.4854144713707567,0.3736333447300859
-0.002280430889449068,0.4847429146040301,0.3736333447300859
-0.002279580889449069,0.4860860281374829,0.3729675571131333
-0.002278730889449069,0.4864218065208468,0.3723017694961802
-0.002277880889449069,0.4867575849042101,0.3719688756877037
-0.002277030889449068,0.4867575849042103,0.371635981879227
-0.002276180889449068,0.4857502497541202,0.3719688756877035
-0.002275330889449068,0.4860860281374835,0.3713030880707504
-0.002274480889449069,0.4860860281374835,0.3713030880707504
-0.002273630889449069,0.485414471370757,0.3706373004537978
-0.002272780889449069,0.4860860281374835,0.3706373004537975
-0.002271930889449068,0.486421806520847,0.3703044066453209
-0.002271080889449068,0.4860860281374835,0.3699715128368444
-0.002270230889449069,0.4864218065208467,0.3693057252198921
-0.002269380889449069,0.4870933632875732,0.3693057252198915
-0.002268530889449069,0.4864218065208473,0.3689728314114151
-0.002267680889449068,0.4857502497541202,0.3686399376029386
-0.002266830889449068,0.4860860281374835,0.3686399376029386
-0.002265980889449068,0.4860860281374831,0.3679741499859854
-0.002265130889449069,0.485414471370757,0.3679741499859854
-0.002264280889449069,0.4860860281374831,0.3679741499859854
-0.002263430889449069,0.4857502497541203,0.3676412561775093
-0.002262580889449068,0.4854144713707567,0.3676412561775091
-0.002261730889449068,0.4857502497541202,0.366975468560556
-0.002260880889449069,0.4857502497541202,0.366975468560556
-0.002260030889449069,0.4857502497541202,0.3666425747520796
-0.002259180889449069,0.4857502497541202,0.3659767871351268
-0.002258330889449068,0.4857502497541202,0.3656438933266499
-0.002257480889449068,0.4857502497541202,0.3656438933266499
-0.002256630889449068,0.4857502497541202,0.3656438933266499
-0.002255780889449069,0.4854144713707568,0.3649781057096973
-0.002254930889449069,0.4854144713707567,0.3646452119012206
-0.002254080889449069,0.4854144713707567,0.3643123180927443
-0.002253230889449068,0.4860860281374835,0.3646452119012205
-0.002252380889449068,0.4857502497541202,0.3643123180927441
-0.002251530889449069,0.485078692987394,0.3639794242842678
-0.002250680889449069,0.4854144713707565,0.3636465304757912
-0.002249830889449069,0.4854144713707567,0.3629807428588384
-0.002248980889449068,0.4860860281374835,0.3629807428588381
-0.002248130889449068,0.486421806520847,0.3626478490503615
-0.002247280889449068,0.486421806520847,0.362314955241885
-0.002246430889449069,0.486421806520847,0.362314955241885
-0.002245580889449069,0.4860860281374836,0.3619820614334088
-0.002244730889449069,0.4860860281374835,0.3619820614334086
-0.002243880889449068,0.4860860281374835,0.3613162738164555
-0.002243030889449068,0.4867575849042103,0.3613162738164555
-0.002242180889449069,0.4867575849042103,0.3609833800079794
-0.002241330889449069,0.4867575849042103,0.3606504861995027
-0.002240480889449069,0.4864218065208472,0.3603175923910262
-0.002239630889449068,0.486421806520847,0.3599846985825494
-0.002238780889449068,0.486421806520847,0.3599846985825494
-0.002237930889449068,0.4857502497541202,0.3593189109655965
-0.002237080889449069,0.4854144713707568,0.3593189109655965
-0.002236230889449069,0.4860860281374831,0.3589860171571201
-0.002235380889449069,0.4860860281374835,0.3586531233486438
-0.002234530889449068,0.4857502497541202,0.3583202295401671
-0.002233680889449068,0.4854144713707567,0.3586531233486436
-0.002232830889449069,0.4857502497541198,0.3583202295401673
-0.002231980889449069,0.4860860281374833,0.3576544419232144
-0.002231130889449069,0.4864218065208468,0.3579873357316903
-0.002230280889449069,0.486421806520847,0.3576544419232142
-0.002229430889449068,0.4860860281374835,0.3576544419232142
-0.002228580889449068,0.4854144713707567,0.356988654306261
-0.002227730889449069,0.48575024975412,0.3573215481147374
-0.002226880889449069,0.4860860281374833,0.3569886543062612
-0.002226030889449069,0.4864218065208468,0.3566557604977846
-0.002225180889449068,0.486421806520847,0.3559899728808316
-0.002224330889449068,0.486421806520847,0.355657079072355
-0.002223480889449068,0.4860860281374833,0.3553241852638787
-0.002222630889449069,0.4857502497541203,0.3553241852638787
-0.002221780889449069,0.4860860281374833,0.3546583976469258
-0.002220930889449069,0.48675758490421,0.3543255038384494
-0.002220080889449068,0.486421806520847,0.3543255038384492
-0.002219230889449068,0.4860860281374835,0.3539926100299726
-0.002218380889449069,0.4854144713707573,0.3533268224130201
-0.002217530889449069,0.48575024975412,0.3533268224130195
-0.002216680889449069,0.4864218065208467,0.3529939286045433
-0.002215830889449068,0.4860860281374835,0.3526610347960666
-0.002214980889449068,0.4854144713707567,0.3526610347960666
-0.002214130889449068,0.4854144713707567,0.35232814098759
-0.002213280889449069,0.48575024975412,0.3519952471791138
-0.002212430889449069,0.4864218065208467,0.3516623533706373
-0.002211580889449069,0.4860860281374836,0.3513294595621607
-0.002210730889449068,0.4857502497541202,0.3513294595621606
-0.002209880889449068,0.4860860281374835,0.3513294595621606
-0.002209030889449069,0.4854144713707573,0.3506636719452083
-0.002208180889449069,0.4850786929873935,0.3506636719452076
-0.002207330889449069,0.4854144713707565,0.349997884328255
-0.002206480889449068,0.4860860281374835,0.3496649905197782
-0.002205630889449068,0.4857502497541202,0.3496649905197782
-0.002204780889449068,0.4854144713707567,0.3493320967113016
-0.002203930889449069,0.48575024975412,0.3493320967113016
-0.002203080889449069,0.4857502497541202,0.348666309094349
-0.002202230889449069,0.4860860281374833,0.3489992029028249
-0.002201380889449068,0.4854144713707567,0.348999202902825
-0.002200530889449068,0.4857502497541202,0.348999202902825
-0.002199680889449069,0.485414471370757,0.3480005214773965
-0.002198830889449069,0.4854144713707567,0.3480005214773956
-0.002197980889449069,0.4854144713707567,0.3473347338604429
-0.002197130889449068,0.4854144713707567,0.3470018400519661
-0.002196280889449068,0.4854144713707567,0.3473347338604427
-0.002195430889449068,0.4854144713707567,0.3470018400519661
-0.002194580889449069,0.48575024975412,0.3470018400519661
-0.002193730889449069,0.4857502497541202,0.3463360524350135
-0.002192880889449069,0.4857502497541202,0.3460031586265368
-0.002192030889449068,0.4860860281374835,0.3456702648180601
-0.002191180889449068,0.4867575849042103,0.3453373710095837
-0.002190330889449069,0.4864218065208473,0.3453373710095837
-0.002189480889449069,0.4857502497541205,0.3453373710095837
-0.002188630889449069,0.4857502497541202,0.3450044772011073
-0.002187780889449068,0.4850786929873934,0.3446715833926306
-0.002186930889449068,0.4854144713707567,0.3446715833926306
-0.002186080889449068,0.4854144713707567,0.3440057957756777
-0.002185230889449069,0.48575024975412,0.3440057957756777
-0.002184380889449069,0.4857502497541202,0.3440057957756777
-0.002183530889449069,0.4850786929873937,0.3436729019672013
-0.002182680889449068,0.4857502497541202,0.3433400081587248
-0.002181830889449068,0.4847429146040301,0.3433400081587248
-0.002180980889449068,0.4854144713707571,0.3426742205417715
-0.002180130889449069,0.4864218065208465,0.3423413267332953
-0.002179280889449069,0.4857502497541205,0.3423413267332951
-0.002178430889449069,0.4854144713707567,0.3416755391163422
-0.002177580889449068,0.4847429146040301,0.3420084329248188
-0.002176730889449068,0.4847429146040301,0.3420084329248188
-0.002175880889449069,0.4854144713707561,0.3413426453078662
-0.002175030889449069,0.4854144713707567,0.340676857690913
-0.002174180889449069,0.4860860281374831,0.3403439638824363
-0.002173330889449068,0.4860860281374835,0.3403439638824362
-0.002172480889449068,0.4860860281374835,0.3403439638824362
-0.002171630889449068,0.486421806520847,0.3400110700739596
-0.002170780889449069,0.486421806520847,0.3396781762654834
-0.002169930889449069,0.486421806520847,0.3396781762654832
-0.002169080889449069,0.486421806520847,0.3393452824570068
-0.002168230889449068,0.4860860281374835,0.3390123886485301
-0.002167380889449068,0.4860860281374835,0.3383466010315772
-0.002166530889449069,0.4864218065208467,0.3386794948400535
-0.002165680889449069,0.4857502497541205,0.3383466010315774
-0.002164830889449069,0.4850786929873937,0.3380137072231008
-0.002163980889449068,0.4854144713707567,0.3376808134146243
-0.002163130889449068,0.4854144713707567,0.3376808134146243
-0.002162280889449068,0.4850786929873934,0.3376808134146243
-0.002161430889449069,0.4847429146040302,0.3376808134146243
-0.002160580889449069,0.4850786929873932,0.3370150257976715
-0.002159730889449069,0.4857502497541198,0.3370150257976712
-0.002158880889449068,0.4857502497541202,0.3363492381807183
-0.002158030889449068,0.4857502497541202,0.3366821319891948
-0.002157180889449069,0.4864218065208464,0.3363492381807185
-0.002156330889449069,0.4860860281374836,0.3363492381807183
-0.002155480889449069,0.4864218065208468,0.3363492381807183
-0.002154630889449068,0.486421806520847,0.3360163443722417
-0.002153780889449068,0.4860860281374835,0.3356834505637651
-0.002152930889449068,0.4857502497541202,0.3353505567552888
-0.002152080889449069,0.4850786929873937,0.3353505567552888
-0.002151230889449069,0.4857502497541198,0.3346847691383359
-0.002150380889449069,0.4857502497541202,0.334018981521383
-0.002149530889449068,0.4854144713707567,0.3336860877129062
-0.002148680889449068,0.4857502497541202,0.3333531939044299
-0.002147830889449069,0.4860860281374831,0.3336860877129059
-0.002146980889449069,0.4860860281374835,0.33335319390443
-0.002146130889449069,0.48675758490421,0.3333531939044299
-0.002145280889449068,0.4857502497541202,0.3333531939044299
-0.002144430889449068,0.4857502497541202,0.3326874062874767
-0.002143580889449068,0.4857502497541202,0.3323545124790004
-0.002142730889449069,0.4857502497541202,0.332021618670524
-0.002141880889449069,0.4860860281374833,0.3320216186705238
-0.002141030889449069,0.4860860281374835,0.3316887248620474
-0.002140180889449068,0.4860860281374835,0.3310229372450944
-0.002139330889449068,0.4854144713707567,0.3310229372450944
-0.002138480889449068,0.4857502497541203,0.3310229372450941
-0.002137630889449069,0.4860860281374833,0.3303571496281415
-0.002136780889449069,0.485414471370757,0.330024255819665
-0.002135930889449069,0.4860860281374835,0.3300242558196649
-0.002135080889449068,0.4860860281374835,0.3300242558196649
-0.002134230889449068,0.4860860281374835,0.3296913620111883
-0.002133380889449069,0.4850786929873943,0.3296913620111883
-0.002132530889449069,0.4854144713707565,0.3293584682027119
-0.002131680889449069,0.4854144713707567,0.3286926805857591
-0.002130830889449068,0.4857502497541202,0.3286926805857588
-0.002129980889449068,0.4857502497541202,0.3286926805857588
-0.002129130889449068,0.4857502497541203,0.3283597867772823
-0.002128280889449069,0.4860860281374833,0.3283597867772823
-0.002127430889449069,0.4860860281374835,0.3283597867772823
-0.002126580889449069,0.4860860281374835,0.3276939991603297
-0.002125730889449068,0.4860860281374835,0.3273611053518528
-0.002124880889449068,0.486421806520847,0.3276939991603294
-0.002124030889449069,0.4860860281374838,0.3273611053518531
-0.002123180889449069,0.4860860281374835,0.3263624239264238
-0.002122330889449069,0.4860860281374835,0.3263624239264233
-0.002121480889449068,0.4854144713707567,0.3260295301179468
-0.002120630889449068,0.4860860281374835,0.3260295301179468
-0.002119780889449068,0.486421806520847,0.3260295301179468
-0.002118930889449069,0.4854144713707571,0.3256966363094706
-0.002118080889449069,0.4854144713707567,0.3256966363094704
-0.002117230889449069,0.4864218065208465,0.325363742500994
-0.002116380889449068,0.4860860281374835,0.3253637425009939
-0.002115530889449068,0.4857502497541202,0.3253637425009939
-0.002114680889449069,0.4857502497541202,0.3243650610755653
