LAB4/2v_milo.csv

#Digilent WaveForms Oscilloscope Acquisition
#Device Name: Discovery2
#Serial Number: SN:210321A18A25
#Date Time: 2023-04-30 20:23:21.724
#Sample rate: 131062Hz
#Samples: 8192
#Trigger: Source: Channel 1 Type: Edge Condition: Rising Level: 0 V Hyst.: Auto HoldOff: 0 s
#Channel 1: Range: 500 mV/div Offset: -2 V Attenuation: 1 X Sample Mode: Average
#Channel 2: Range: 500 mV/div Offset: -2 V Attenuation: 1 X Sample Mode: Average
#Wavegen Channel 1: Running
#Mode: Simple
#Type: Square
#Frequency: 200 Hz
#Period: 5 ms
#Amplitude: 2 V
#Offset: 2.5 V
#Symmetry: 50 %
#Phase: 0 °

Time (s),Channel 1 (V),Channel 2 (V)
-0.04706179162350643,4.490914806512516,0.5330894789903282
-0.04705416162350642,4.490579028129153,0.6296286834485557
-0.04704653162350643,4.490914806512516,0.7251692064812669
-0.04703890162350643,4.490579028129153,0.8197110480885923
-0.04703127162350643,4.49024324974579,0.9129213144620534
-0.04702364162350643,4.490579028129153,1.005132899409959
-0.04701601162350642,4.490579028129153,1.097011590549555
-0.04700838162350643,4.490914806512516,1.187558706455122
-0.04700075162350643,4.490914806512516,1.277440034743776
-0.04699312162350643,4.491250584895879,1.366322681607041
-0.04698549162350643,4.490579028129153,1.454206647044756
-0.04697786162350643,4.491250584895879,1.541757718674115
-0.04697023162350643,4.491250584895879,1.627977215069528
-0.04696260162350643,4.491250584895879,1.713530923847949
-0.04695497162350643,4.490914806512516,1.798085951201056
-0.04694734162350643,4.491250584895879,1.882308084745533
-0.04693971162350643,4.491250584895879,1.965198643056219
-0.04693208162350643,4.490914806512516,2.047090519941438
-0.04692445162350643,4.491586363279243,2.128649503018142
-0.04691682162350642,4.490914806512516,2.209542698478004
-0.04690919162350643,4.491250584895879,2.288771424895375
-0.04690156162350643,4.491250584895879,2.367334363695828
-0.04689393162350643,4.491250584895879,2.44556440868784
-0.04688630162350643,4.491586363279243,2.522795772254317
-0.04687867162350642,4.491250584895879,2.599028454395504
-0.04687104162350643,4.491922141662607,2.674262455111158
-0.04686341162350643,4.491586363279243,2.748830668209894
-0.04685578162350643,4.491250584895879,2.822400199883233
-0.04684815162350643,4.491250584895879,2.895303943939519
-0.04684052162350643,4.491586363279243,2.967541900378952
-0.04683289162350643,4.491250584895879,3.038781175392923
-0.04682526162350643,4.491250584895879,3.10935466278994
-0.04681763162350643,4.491250584895879,3.17892946876156
-0.04681000162350643,4.491250584895879,3.248171380924608
-0.04680237162350643,4.491250584895879,3.316414611662322
-0.04679474162350643,4.491250584895879,3.383326267166098
-0.04678711162350643,4.491250584895879,3.449905028861367
-0.04677948162350642,4.491586363279243,3.515818002939773
-0.04677185162350643,4.491586363279243,3.58073229559266
-0.04676422162350643,4.491250584895879,3.645313694437101
-0.04675659162350643,4.491250584895879,3.708896411856112
-0.04674896162350643,4.491250584895879,3.771813341658142
-0.04674133162350642,4.491250584895879,3.833731590034826
-0.04673370162350643,4.491250584895879,3.894984050794474
-0.04672607162350643,4.491250584895879,3.955570723937196
-0.04671844162350643,4.491586363279243,4.015158715654517
-0.04671081162350643,4.491250584895879,4.073748025946326
-0.04670318162350643,4.491586363279243,4.132004442429739
-0.04669555162350643,4.491250584895879,4.189262177487697
-0.04668792162350643,4.491250584895879,4.245521231120225
-0.04668029162350643,4.491250584895879,4.300115815710393
-0.04667266162350643,4.490914806512516,4.350382780790299
-0.04666503162350643,4.491586363279243,4.39432476350922
-0.04665740162350643,4.491586363279243,4.422620737229722
-0.04664977162350643,4.491586363279243,4.428945719590772
-0.04664214162350643,4.491586363279243,4.431275976250112
-0.04663451162350643,4.491586363279243,4.432607551484016
-0.04662688162350643,4.491250584895879,4.433606232909446
-0.04661925162350643,4.491586363279243,4.433939126717923
-0.04661162162350643,4.491250584895879,4.434272020526399
-0.04660399162350642,4.491250584895879,4.434604914334876
-0.04659636162350643,4.491586363279243,4.434604914334876
-0.04658873162350643,4.491250584895879,4.434604914334876
-0.04658110162350643,4.491250584895879,4.434272020526399
-0.04657347162350643,4.491250584895879,4.434272020526399
-0.04656584162350642,4.491250584895879,4.434604914334876
-0.04655821162350643,4.490914806512516,4.434604914334876
-0.04655058162350643,4.490914806512516,4.434272020526399
-0.04654295162350643,4.490914806512516,4.434272020526399
-0.04653532162350643,4.491250584895879,4.434272020526399
-0.04652769162350643,4.490914806512516,4.434272020526399
-0.04652006162350643,4.491250584895879,4.434604914334876
-0.04651243162350643,4.491250584895879,4.434272020526399
-0.04650480162350643,4.491250584895879,4.434604914334876
-0.04649717162350643,4.491586363279243,4.434604914334876
-0.04648954162350643,4.491250584895879,4.434937808143353
-0.04648191162350643,4.491586363279243,4.434937808143353
-0.04647428162350643,4.491250584895879,4.434272020526399
-0.04646665162350642,4.491250584895879,4.434604914334876
-0.04645902162350643,4.491586363279243,4.434604914334876
-0.04645139162350643,4.491250584895879,4.434604914334876
-0.04644376162350643,4.490914806512516,4.434604914334876
-0.04643613162350643,4.491250584895879,4.434604914334876
-0.04642850162350642,4.491250584895879,4.434604914334876
-0.04642087162350643,4.491250584895879,4.434272020526399
-0.04641324162350643,4.491250584895879,4.434604914334876
-0.04640561162350643,4.491250584895879,4.434604914334876
-0.04639798162350643,4.491250584895879,4.434604914334876
-0.04639035162350643,4.491250584895879,4.434604914334876
-0.04638272162350643,4.491586363279243,4.434937808143353
-0.04637509162350643,4.491250584895879,4.434604914334876
-0.04636746162350643,4.491250584895879,4.434604914334876
-0.04635983162350643,4.491250584895879,4.434272020526399
-0.04635220162350643,4.491586363279243,4.434272020526399
-0.04634457162350643,4.491586363279243,4.434604914334876
-0.04633694162350643,4.491250584895879,4.434604914334876
-0.04632931162350643,4.491250584895879,4.434604914334876
-0.04632168162350643,4.491586363279243,4.434937808143353
-0.04631405162350643,4.491250584895879,4.434604914334876
-0.04630642162350643,4.490914806512516,4.434272020526399
-0.04629879162350643,4.491250584895879,4.434604914334876
-0.04629116162350642,4.491586363279243,4.434604914334876
-0.04628353162350643,4.491586363279243,4.434604914334876
-0.04627590162350643,4.491586363279243,4.434937808143353
-0.04626827162350643,4.491586363279243,4.434937808143353
-0.04626064162350643,4.491250584895879,4.434604914334876
-0.04625301162350642,4.491586363279243,4.434604914334876
-0.04624538162350643,4.491250584895879,4.434604914334876
-0.04623775162350643,4.491250584895879,4.434604914334876
-0.04623012162350643,4.491250584895879,4.434937808143353
-0.04622249162350643,4.491250584895879,4.434604914334876
-0.04621486162350643,4.491586363279243,4.434937808143353
-0.04620723162350643,4.491586363279243,4.434937808143353
-0.04619960162350643,4.491586363279243,4.434604914334876
-0.04619197162350643,4.491586363279243,4.434604914334876
-0.04618434162350643,4.491922141662607,4.434604914334876
-0.04617671162350643,4.490914806512516,4.434604914334876
-0.04616908162350643,4.491250584895879,4.434937808143353
-0.04616145162350643,4.491922141662607,4.434604914334876
-0.04615382162350642,4.491250584895879,4.434604914334876
-0.04614619162350643,4.491586363279243,4.434604914334876
-0.04613856162350643,4.491922141662607,4.434604914334876
-0.04613093162350643,4.491922141662607,4.434937808143353
-0.04612330162350643,4.491922141662607,4.434937808143353
-0.04611567162350642,4.491250584895879,4.434604914334876
-0.04610804162350643,4.491250584895879,4.434272020526399
-0.04610041162350643,4.491922141662607,4.434604914334876
-0.04609278162350643,4.491922141662607,4.434604914334876
-0.04608515162350643,4.491922141662607,4.434937808143353
-0.04607752162350643,4.491586363279243,4.434937808143353
-0.04606989162350643,4.491586363279243,4.435270701951829
-0.04606226162350643,4.491586363279243,4.434937808143353
-0.04605463162350643,4.491250584895879,4.434937808143353
-0.04604700162350643,4.491922141662607,4.435270701951829
-0.04603937162350643,4.491586363279243,4.434937808143353
-0.04603174162350643,4.491586363279243,4.435270701951829
-0.04602411162350643,4.491586363279243,4.434937808143353
-0.04601648162350643,4.491586363279243,4.434937808143353
-0.04600885162350643,4.491586363279243,4.434604914334876
-0.04600122162350643,4.491586363279243,4.434604914334876
-0.04599359162350643,4.491586363279243,4.434937808143353
-0.04598596162350643,4.491922141662607,4.435270701951829
-0.04597833162350642,4.491922141662607,4.435270701951829
-0.04597070162350643,4.491586363279243,4.434937808143353
-0.04596307162350643,4.491586363279243,4.435270701951829
-0.04595544162350643,4.491586363279243,4.434937808143353
-0.04594781162350643,4.491922141662607,4.434937808143353
-0.04594018162350642,4.490914806512516,4.434937808143353
-0.04593255162350643,4.491586363279243,4.434937808143353
-0.04592492162350643,4.491586363279243,4.434937808143353
-0.04591729162350643,4.491586363279243,4.434937808143353
-0.04590966162350643,4.491586363279243,4.434937808143353
-0.04590203162350643,4.491586363279243,4.434604914334876
-0.04589440162350643,4.491250584895879,4.434604914334876
-0.04588677162350643,4.491250584895879,4.434604914334876
-0.04587914162350643,4.491586363279243,4.434604914334876
-0.04587151162350643,4.491250584895879,4.434604914334876
-0.04586388162350643,4.490579028129153,4.434604914334876
-0.04585625162350643,4.491250584895879,4.434604914334876
-0.04584862162350643,4.491586363279243,4.434272020526399
-0.04584099162350642,4.491922141662607,4.434272020526399
-0.04583336162350643,4.491586363279243,4.434937808143353
-0.04582573162350643,4.491922141662607,4.434604914334876
-0.04581810162350643,4.491586363279243,4.434604914334876
-0.04581047162350643,4.491922141662607,4.434272020526399
-0.04580284162350642,4.491586363279243,4.434604914334876
-0.04579521162350643,4.491586363279243,4.434604914334876
-0.04578758162350643,4.491586363279243,4.434604914334876
-0.04577995162350643,4.491250584895879,4.434937808143353
-0.04577232162350643,4.491922141662607,4.434604914334876
-0.04576469162350643,4.491250584895879,4.434604914334876
-0.04575706162350643,4.491586363279243,4.434604914334876
-0.04574943162350643,4.491250584895879,4.434604914334876
-0.04574180162350643,4.491250584895879,4.434604914334876
-0.04573417162350643,4.491250584895879,4.434604914334876
-0.04572654162350643,4.491250584895879,4.434604914334876
-0.04571891162350643,4.491250584895879,4.434272020526399
-0.04571128162350643,4.491250584895879,4.434604914334876
-0.04570365162350642,4.491250584895879,4.434604914334876
-0.04569602162350643,4.491250584895879,4.434604914334876
-0.04568839162350643,4.491250584895879,4.434604914334876
-0.04568076162350643,4.491250584895879,4.434604914334876
-0.04567313162350643,4.491250584895879,4.434604914334876
-0.04566550162350642,4.491922141662607,4.434272020526399
-0.04565787162350643,4.491922141662607,4.434604914334876
-0.04565024162350643,4.490914806512516,4.434604914334876
-0.04564261162350643,4.490914806512516,4.434937808143353
-0.04563498162350643,4.491250584895879,4.434604914334876
-0.04562735162350642,4.491586363279243,4.434937808143353
-0.04561972162350643,4.491586363279243,4.434937808143353
-0.04561209162350643,4.491586363279243,4.434937808143353
-0.04560446162350643,4.491586363279243,4.434604914334876
-0.04559683162350643,4.491922141662607,4.434937808143353
-0.04558920162350643,4.491586363279243,4.434604914334876
-0.04558157162350643,4.491922141662607,4.434937808143353
-0.04557394162350643,4.491250584895879,4.434604914334876
-0.04556631162350643,4.491250584895879,4.434604914334876
-0.04555868162350643,4.491922141662607,4.434604914334876
-0.04555105162350643,4.491586363279243,4.434937808143353
-0.04554342162350643,4.491586363279243,4.434937808143353
-0.04553579162350643,4.491586363279243,4.434604914334876
-0.04552816162350642,4.491250584895879,4.434272020526399
-0.04552053162350643,4.491250584895879,4.434937808143353
-0.04551290162350643,4.491922141662607,4.434937808143353
-0.04550527162350643,4.491586363279243,4.434604914334876
-0.04549764162350643,4.491586363279243,4.434937808143353
-0.04549001162350642,4.491922141662607,4.434937808143353
-0.04548238162350643,4.491586363279243,4.434604914334876
-0.04547475162350643,4.491586363279243,4.434937808143353
-0.04546712162350643,4.491586363279243,4.434937808143353
-0.04545949162350643,4.491922141662607,4.434604914334876
-0.04545186162350643,4.491586363279243,4.434937808143353
-0.04544423162350643,4.491586363279243,4.434937808143353
-0.04543660162350643,4.491250584895879,4.434937808143353
-0.04542897162350643,4.491586363279243,4.434937808143353
-0.04542134162350643,4.490914806512516,4.434937808143353
-0.04541371162350643,4.491586363279243,4.434937808143353
-0.04540608162350643,4.491586363279243,4.434937808143353
-0.04539845162350643,4.491250584895879,4.434937808143353
-0.04539082162350642,4.491250584895879,4.434604914334876
-0.04538319162350643,4.491586363279243,4.434937808143353
-0.04537556162350643,4.491586363279243,4.434937808143353
-0.04536793162350643,4.491250584895879,4.434937808143353
-0.04536030162350643,4.491250584895879,4.434604914334876
-0.04535267162350642,4.491250584895879,4.434604914334876
-0.04534504162350643,4.491586363279243,4.434604914334876
-0.04533741162350643,4.491586363279243,4.434604914334876
-0.04532978162350643,4.490914806512516,4.434604914334876
-0.04532215162350643,4.491586363279243,4.434604914334876
-0.04531452162350642,4.491586363279243,4.434937808143353
-0.04530689162350643,4.491586363279243,4.434937808143353
-0.04529926162350643,4.491922141662607,4.434604914334876
-0.04529163162350643,4.491250584895879,4.434937808143353
-0.04528400162350643,4.491250584895879,4.434604914334876
-0.04527637162350643,4.491586363279243,4.434604914334876
-0.04526874162350643,4.491250584895879,4.434604914334876
-0.04526111162350643,4.491250584895879,4.434604914334876
-0.04525348162350643,4.491586363279243,4.434604914334876
-0.04524585162350643,4.491250584895879,4.434604914334876
-0.04523822162350643,4.491250584895879,4.434604914334876
-0.04523059162350643,4.491586363279243,4.434604914334876
-0.04522296162350643,4.491250584895879,4.434604914334876
-0.04521533162350642,4.491586363279243,4.434604914334876
-0.04520770162350643,4.491586363279243,4.434604914334876
-0.04520007162350643,4.490914806512516,4.434604914334876
-0.04519244162350643,4.490914806512516,4.434604914334876
-0.04518481162350643,4.491586363279243,4.434604914334876
-0.04517718162350642,4.491250584895879,4.434604914334876
-0.04516955162350643,4.491586363279243,4.434604914334876
-0.04516192162350643,4.491922141662607,4.434604914334876
-0.04515429162350643,4.491250584895879,4.434937808143353
-0.04514666162350643,4.491250584895879,4.434604914334876
-0.04513903162350643,4.491250584895879,4.434604914334876
-0.04513140162350643,4.490914806512516,4.434604914334876
-0.04512377162350643,4.491586363279243,4.434604914334876
-0.04511614162350643,4.491586363279243,4.434937808143353
-0.04510851162350643,4.491250584895879,4.434937808143353
-0.04510088162350643,4.491586363279243,4.434937808143353
-0.04509325162350643,4.491922141662607,4.434604914334876
-0.04508562162350643,4.491250584895879,4.434604914334876
-0.04507799162350642,4.491250584895879,4.434604914334876
-0.04507036162350643,4.491586363279243,4.434937808143353
-0.04506273162350643,4.491586363279243,4.434604914334876
-0.04505510162350643,4.491586363279243,4.434937808143353
-0.04504747162350643,4.491586363279243,4.434604914334876
-0.04503984162350642,4.491922141662607,4.434604914334876
-0.04503221162350643,4.491586363279243,4.434937808143353
-0.04502458162350643,4.491586363279243,4.435270701951829
-0.04501695162350643,4.491586363279243,4.434937808143353
-0.04500932162350643,4.491250584895879,4.434937808143353
-0.04500169162350643,4.491586363279243,4.434937808143353
-0.04499406162350643,4.491250584895879,4.434937808143353
-0.04498643162350643,4.491250584895879,4.434937808143353
-0.04497880162350643,4.491586363279243,4.434604914334876
-0.04497117162350643,4.491922141662607,4.434937808143353
-0.04496354162350643,4.491586363279243,4.434937808143353
-0.04495591162350643,4.491586363279243,4.434937808143353
-0.04494828162350643,4.491586363279243,4.434604914334876
-0.04494065162350643,4.491586363279243,4.434604914334876
-0.04493302162350643,4.491250584895879,4.434604914334876
-0.04492539162350643,4.491586363279243,4.434937808143353
-0.04491776162350643,4.491250584895879,4.434937808143353
-0.04491013162350643,4.491586363279243,4.434604914334876
-0.04490250162350642,4.491586363279243,4.434937808143353
-0.04489487162350643,4.491250584895879,4.434604914334876
-0.04488724162350643,4.491586363279243,4.434604914334876
-0.04487961162350643,4.491586363279243,4.434604914334876
-0.04487198162350643,4.491586363279243,4.434937808143353
-0.04486435162350642,4.491586363279243,4.435270701951829
-0.04485672162350643,4.491250584895879,4.434937808143353
-0.04484909162350643,4.491250584895879,4.434604914334876
-0.04484146162350643,4.491586363279243,4.434937808143353
-0.04483383162350643,4.491586363279243,4.434604914334876
-0.04482620162350643,4.491250584895879,4.434604914334876
-0.04481857162350643,4.491250584895879,4.434937808143353
-0.04481094162350643,4.491586363279243,4.434937808143353
-0.04480331162350643,4.491586363279243,4.434937808143353
-0.04479568162350643,4.491250584895879,4.434604914334876
-0.04478805162350643,4.491586363279243,4.434604914334876
-0.04478042162350643,4.491586363279243,4.434604914334876
-0.04477279162350643,4.490914806512516,4.434604914334876
-0.04476516162350642,4.491250584895879,4.434604914334876
-0.04475753162350643,4.491250584895879,4.434604914334876
-0.04474990162350643,4.491586363279243,4.434604914334876
-0.04474227162350643,4.490914806512516,4.434604914334876
-0.04473464162350643,4.491586363279243,4.434604914334876
-0.04472701162350642,4.490914806512516,4.434604914334876
-0.04471938162350643,4.491250584895879,4.434604914334876
-0.04471175162350643,4.491250584895879,4.434937808143353
-0.04470412162350643,4.491250584895879,4.434604914334876
-0.04469649162350643,4.491250584895879,4.434937808143353
-0.04468886162350643,4.491250584895879,4.434937808143353
-0.04468123162350643,4.491586363279243,4.434604914334876
-0.04467360162350643,4.491586363279243,4.434604914334876
-0.04466597162350643,4.491586363279243,4.434604914334876
-0.04465834162350643,4.491250584895879,4.434937808143353
-0.04465071162350643,4.491250584895879,4.434604914334876
-0.04464308162350643,4.490914806512516,4.434604914334876
-0.04463545162350643,4.491250584895879,4.434937808143353
-0.04462782162350643,4.491250584895879,4.434604914334876
-0.04462019162350643,4.491250584895879,4.434937808143353
-0.04461256162350643,4.491250584895879,4.434937808143353
-0.04460493162350643,4.491586363279243,4.434604914334876
-0.04459730162350643,4.491250584895879,4.434937808143353
-0.04458967162350642,1.922881730548732,4.41096945393299
-0.04458204162350643,0.4830640226872132,4.291127682881505
-0.04457441162350643,0.4854144713707567,4.159301734724813
-0.04456678162350643,0.4857502497541203,4.029140255610443
-0.04455915162350643,0.4860860281374833,3.899311670304727
-0.04455152162350642,0.4867575849042101,3.771147554041159
-0.04454389162350643,0.486421806520847,3.643982119203195
-0.04453626162350643,0.486421806520847,3.518481153407556
-0.04452863162350643,0.4860860281374835,3.394311762845766
-0.04452100162350643,0.4860860281374835,3.271141053709574
-0.04451337162350643,0.4860860281374835,3.149634813615596
-0.04450574162350643,0.486421806520847,3.029460148755581
-0.04449811162350643,0.4860860281374836,2.910284165321049
-0.04449048162350643,0.4860860281374835,2.792439757120261
-0.04448285162350643,0.4860860281374835,2.675594030345118
