LAB4/50mv_milo2.csv

#Digilent WaveForms Oscilloscope Acquisition
#Device Name: Discovery2
#Serial Number: SN:210321A18A25
#Date Time: 2023-04-30 20:33:41.621
#Sample rate: 632911Hz
#Samples: 8192
#Trigger: Source: Channel 1 Type: Edge Condition: Rising Level: 2.5 V Hyst.: Auto HoldOff: 0 s
#Channel 1: Range: 500 mV/div Offset: -2 V Attenuation: 1 X Sample Mode: Average
#Channel 2: Range: 500 mV/div Offset: -2 V Attenuation: 1 X Sample Mode: Average
#Wavegen Channel 1: Running
#Mode: Simple
#Type: Square
#Frequency: 500 Hz
#Period: 2 ms
#Amplitude: 50 mV
#Offset: 2.5 V
#Symmetry: 50 %
#Phase: 0 °

Time (s),Channel 1 (V),Channel 2 (V)
-0.005692739517056901,2.439980440928991,2.422927629711403
-0.005691159517056901,2.439644662545628,2.422927629711403
-0.005689579517056901,2.439644662545628,2.422594735902926
-0.005687999517056901,2.439644662545628,2.422927629711403
-0.005686419517056901,2.439980440928991,2.422927629711403
-0.005684839517056901,2.439308884162265,2.422927629711403
-0.005683259517056901,2.439980440928991,2.423260523519879
-0.005681679517056901,2.439980440928991,2.423260523519879
-0.005680099517056901,2.439644662545628,2.423593417328356
-0.005678519517056901,2.439308884162265,2.423260523519879
-0.005676939517056901,2.438973105778901,2.423593417328356
-0.005675359517056901,2.439308884162265,2.423260523519879
-0.005673779517056901,2.439644662545628,2.423260523519879
-0.005672199517056901,2.439980440928991,2.423260523519879
-0.005670619517056901,2.439308884162265,2.422927629711403
-0.005669039517056901,2.439644662545628,2.422927629711403
-0.005667459517056901,2.439644662545628,2.422927629711403
-0.005665879517056901,2.439980440928991,2.423260523519879
-0.005664299517056901,2.439308884162265,2.423593417328356
-0.005662719517056901,2.438973105778901,2.422927629711403
-0.005661139517056901,2.439308884162265,2.423260523519879
-0.005659559517056901,2.439308884162265,2.422927629711403
-0.005657979517056901,2.439308884162265,2.422927629711403
-0.005656399517056901,2.439980440928991,2.423260523519879
-0.005654819517056901,2.439644662545628,2.422594735902926
-0.005653239517056901,2.439980440928991,2.422927629711403
-0.005651659517056901,2.439980440928991,2.422927629711403
-0.005650079517056901,2.439980440928991,2.422594735902926
-0.005648499517056901,2.440316219312355,2.422927629711403
-0.005646919517056901,2.439644662545628,2.422927629711403
-0.005645339517056901,2.439980440928991,2.422927629711403
-0.005643759517056901,2.439644662545628,2.423260523519879
-0.005642179517056901,2.439308884162265,2.423260523519879
-0.005640599517056901,2.439644662545628,2.422594735902926
-0.005639019517056901,2.439308884162265,2.423260523519879
-0.005637439517056901,2.439308884162265,2.423593417328356
-0.005635859517056901,2.439644662545628,2.422594735902926
-0.005634279517056901,2.439644662545628,2.423260523519879
-0.005632699517056901,2.439644662545628,2.423260523519879
-0.005631119517056901,2.439980440928991,2.422927629711403
-0.005629539517056901,2.439980440928991,2.423260523519879
-0.005627959517056901,2.439644662545628,2.423260523519879
-0.005626379517056901,2.439644662545628,2.423593417328356
-0.005624799517056901,2.439644662545628,2.422927629711404
-0.005623219517056901,2.439644662545628,2.42226184209445
-0.005621639517056901,2.439308884162265,2.422927629711403
-0.005620059517056901,2.439308884162265,2.422594735902926
-0.005618479517056901,2.439644662545628,2.422927629711403
-0.005616899517056901,2.438973105778902,2.422927629711403
-0.005615319517056901,2.439644662545628,2.422927629711403
-0.005613739517056901,2.439644662545628,2.422927629711403
-0.005612159517056901,2.439644662545628,2.422927629711403
-0.005610579517056901,2.439308884162265,2.422927629711403
-0.005608999517056901,2.439308884162265,2.423260523519879
-0.005607419517056901,2.439980440928991,2.422927629711403
-0.005605839517056901,2.439308884162265,2.422927629711403
-0.005604259517056901,2.439980440928991,2.423593417328356
-0.005602679517056901,2.439644662545628,2.423260523519879
-0.005601099517056901,2.438973105778901,2.422594735902926
-0.005599519517056901,2.440316219312355,2.422927629711403
-0.005597939517056901,2.439980440928991,2.422927629711403
-0.005596359517056901,2.439980440928991,2.423260523519879
-0.005594779517056901,2.439980440928991,2.422927629711403
-0.005593199517056901,2.439980440928991,2.423260523519879
-0.005591619517056901,2.440651997695718,2.423260523519879
-0.005590039517056901,2.440316219312355,2.422927629711403
-0.005588459517056901,2.439980440928991,2.422927629711403
-0.005586879517056901,2.439644662545628,2.422927629711403
-0.005585299517056901,2.439644662545628,2.423260523519879
-0.005583719517056901,2.439644662545628,2.423926311136833
-0.005582139517056901,2.439308884162265,2.423260523519879
-0.005580559517056901,2.439644662545628,2.423260523519879
-0.005578979517056901,2.439644662545628,2.423260523519879
-0.005577399517056901,2.439980440928991,2.423260523519879
-0.005575819517056901,2.439308884162265,2.422927629711403
-0.005574239517056901,2.439308884162265,2.423260523519879
-0.005572659517056901,2.439308884162265,2.423260523519879
-0.005571079517056901,2.439644662545628,2.423593417328356
-0.005569499517056901,2.439644662545628,2.422927629711403
-0.005567919517056901,2.438973105778901,2.422927629711403
-0.005566339517056901,2.439644662545628,2.422927629711403
-0.005564759517056901,2.439980440928991,2.423593417328355
-0.005563179517056901,2.439644662545628,2.422927629711403
-0.005561599517056901,2.439644662545628,2.422927629711403
-0.005560019517056901,2.439308884162265,2.422927629711403
-0.005558439517056901,2.439980440928991,2.422927629711403
-0.005556859517056901,2.439644662545628,2.423260523519879
-0.005555279517056901,2.439308884162265,2.422927629711403
-0.005553699517056901,2.439308884162265,2.422927629711403
-0.005552119517056901,2.439308884162265,2.423260523519879
-0.005550539517056901,2.439644662545628,2.423593417328356
-0.005548959517056901,2.440316219312355,2.423260523519879
-0.005547379517056901,2.440316219312354,2.423593417328356
-0.005545799517056901,2.439644662545628,2.423260523519879
-0.005544219517056901,2.439644662545628,2.423260523519879
-0.005542639517056901,2.439308884162265,2.422927629711403
-0.005541059517056901,2.440316219312355,2.422927629711403
-0.005539479517056901,2.439644662545628,2.423260523519879
-0.005537899517056901,2.439644662545628,2.423260523519879
-0.005536319517056901,2.439980440928991,2.423260523519879
-0.005534739517056901,2.439308884162265,2.422927629711403
-0.005533159517056901,2.439980440928991,2.423260523519879
-0.005531579517056901,2.439644662545628,2.422927629711403
-0.005529999517056901,2.439308884162265,2.423260523519879
-0.005528419517056901,2.440316219312355,2.422927629711403
-0.005526839517056901,2.439644662545628,2.422927629711403
-0.005525259517056901,2.439308884162265,2.423260523519879
-0.005523679517056901,2.440651997695718,2.422927629711403
-0.005522099517056901,2.439980440928991,2.423593417328356
-0.005520519517056901,2.439644662545628,2.423593417328356
-0.005518939517056901,2.440316219312355,2.423593417328356
-0.005517359517056901,2.440316219312355,2.423260523519879
-0.005515779517056901,2.440316219312355,2.423593417328356
-0.005514199517056901,2.439644662545628,2.423260523519879
-0.005512619517056901,2.439980440928991,2.423593417328356
-0.005511039517056901,2.439980440928991,2.423260523519879
-0.005509459517056901,2.439308884162265,2.423260523519879
-0.005507879517056901,2.439644662545628,2.423260523519879
-0.005506299517056901,2.440316219312355,2.423593417328356
-0.005504719517056901,2.440651997695718,2.422927629711403
-0.005503139517056901,2.439980440928992,2.423260523519879
-0.005501559517056901,2.440316219312355,2.423260523519879
-0.005499979517056901,2.439644662545628,2.423593417328356
-0.005498399517056901,2.439980440928991,2.423926311136833
-0.005496819517056901,2.439644662545628,2.423260523519879
-0.005495239517056901,2.439644662545628,2.423260523519879
-0.005493659517056901,2.439980440928991,2.423260523519879
-0.005492079517056901,2.440316219312355,2.423593417328356
-0.005490499517056901,2.440316219312355,2.423593417328356
-0.005488919517056901,2.439980440928991,2.423593417328356
-0.005487339517056901,2.439980440928991,2.423593417328356
-0.005485759517056901,2.439644662545628,2.423260523519879
-0.005484179517056901,2.439308884162265,2.423260523519879
-0.005482599517056901,2.439980440928991,2.423593417328356
-0.005481019517056901,2.439980440928991,2.423593417328356
-0.005479439517056901,2.439644662545628,2.423593417328356
-0.005477859517056901,2.439644662545628,2.422927629711403
-0.005476279517056901,2.439644662545628,2.423260523519879
-0.005474699517056901,2.439644662545628,2.423593417328356
-0.005473119517056901,2.439644662545628,2.423260523519879
-0.005471539517056901,2.439980440928991,2.423260523519879
-0.005469959517056901,2.439980440928991,2.423593417328356
-0.005468379517056901,2.439980440928991,2.422927629711404
-0.005466799517056901,2.439980440928991,2.422927629711403
-0.005465219517056901,2.439644662545628,2.423260523519879
-0.005463639517056901,2.440316219312355,2.422927629711403
-0.005462059517056901,2.439980440928991,2.422927629711403
-0.005460479517056901,2.439980440928991,2.423260523519879
-0.005458899517056901,2.439980440928991,2.422927629711403
-0.005457319517056901,2.439308884162265,2.423260523519879
-0.005455739517056901,2.439644662545628,2.422594735902926
-0.005454159517056901,2.439644662545628,2.422927629711403
-0.005452579517056901,2.438973105778901,2.422927629711403
-0.005450999517056901,2.439980440928991,2.422594735902926
-0.005449419517056901,2.439644662545628,2.423260523519879
-0.005447839517056901,2.439644662545628,2.423260523519879
-0.005446259517056901,2.439644662545628,2.423260523519879
-0.005444679517056901,2.439644662545628,2.423260523519879
-0.005443099517056901,2.439644662545628,2.422927629711403
-0.005441519517056901,2.439980440928991,2.423260523519879
-0.005439939517056901,2.439644662545628,2.422927629711403
-0.005438359517056901,2.439308884162265,2.422927629711403
-0.005436779517056901,2.439308884162265,2.422927629711403
-0.005435199517056901,2.439308884162265,2.422927629711403
-0.005433619517056901,2.439644662545628,2.423593417328355
-0.005432039517056901,2.439644662545628,2.423926311136833
-0.005430459517056901,2.439980440928991,2.423260523519879
-0.005428879517056901,2.439644662545628,2.423260523519879
-0.005427299517056901,2.439308884162265,2.422927629711403
-0.005425719517056901,2.439308884162265,2.423260523519879
-0.005424139517056901,2.440316219312355,2.423260523519879
-0.005422559517056901,2.440316219312355,2.423593417328356
-0.005420979517056901,2.439980440928991,2.422927629711403
-0.005419399517056901,2.439644662545628,2.423260523519879
-0.005417819517056901,2.439644662545628,2.423593417328356
-0.005416239517056901,2.439644662545628,2.423260523519879
-0.005414659517056901,2.439644662545628,2.423260523519879
-0.005413079517056901,2.439980440928991,2.422927629711403
-0.005411499517056901,2.439644662545628,2.423260523519879
-0.005409919517056901,2.438973105778901,2.423260523519879
-0.005408339517056901,2.439308884162265,2.423260523519879
-0.005406759517056901,2.439980440928991,2.423260523519879
-0.005405179517056901,2.439980440928991,2.422927629711403
-0.005403599517056901,2.439644662545628,2.423260523519879
-0.005402019517056901,2.439980440928991,2.422927629711403
-0.005400439517056901,2.439644662545628,2.423260523519879
-0.005398859517056901,2.439980440928991,2.423593417328356
-0.005397279517056901,2.439308884162265,2.423260523519879
-0.005395699517056901,2.439980440928991,2.423260523519879
-0.005394119517056901,2.440316219312355,2.423260523519879
-0.005392539517056901,2.440316219312355,2.422927629711403
-0.005390959517056901,2.439980440928991,2.422594735902926
-0.005389379517056901,2.439644662545628,2.422927629711403
-0.005387799517056901,2.439644662545628,2.422594735902926
-0.005386219517056901,2.439644662545628,2.422927629711403
-0.005384639517056901,2.439644662545628,2.423260523519879
-0.005383059517056901,2.439308884162265,2.422927629711403
-0.005381479517056901,2.439308884162265,2.422594735902926
-0.005379899517056901,2.439308884162265,2.422594735902926
-0.005378319517056901,2.439308884162265,2.423260523519879
-0.005376739517056901,2.439644662545628,2.423260523519879
-0.005375159517056901,2.439644662545628,2.423260523519879
-0.005373579517056901,2.438973105778901,2.422927629711403
-0.005371999517056901,2.438973105778901,2.422594735902926
-0.005370419517056901,2.439644662545628,2.422927629711403
-0.005368839517056901,2.439644662545628,2.422927629711403
-0.005367259517056901,2.439644662545628,2.422594735902926
-0.005365679517056901,2.439644662545628,2.422927629711403
-0.005364099517056901,2.439644662545628,2.423260523519879
-0.005362519517056901,2.439980440928991,2.423260523519879
-0.005360939517056901,2.440316219312355,2.422927629711403
-0.005359359517056901,2.439308884162265,2.422594735902926
-0.005357779517056901,2.439980440928991,2.423260523519879
-0.005356199517056901,2.439980440928991,2.423593417328356
-0.005354619517056901,2.438973105778901,2.423260523519879
-0.005353039517056901,2.438973105778901,2.423260523519879
-0.005351459517056901,2.439644662545628,2.423260523519879
-0.005349879517056901,2.439308884162265,2.422927629711403
-0.005348299517056901,2.439644662545628,2.422927629711403
-0.005346719517056901,2.439644662545628,2.422594735902926
-0.005345139517056901,2.439644662545628,2.422594735902926
-0.005343559517056901,2.439308884162265,2.422594735902926
-0.005341979517056901,2.439644662545628,2.422594735902926
-0.005340399517056901,2.439308884162265,2.422594735902926
-0.005338819517056901,2.439644662545628,2.422594735902926
-0.005337239517056901,2.439644662545628,2.422927629711403
-0.005335659517056901,2.439980440928991,2.422927629711403
-0.005334079517056901,2.439644662545628,2.422594735902926
-0.005332499517056901,2.438973105778901,2.422927629711403
-0.005330919517056901,2.439644662545628,2.423260523519879
-0.005329339517056901,2.439308884162265,2.422927629711403
-0.005327759517056901,2.439980440928991,2.422927629711403
-0.005326179517056901,2.439980440928991,2.422927629711403
-0.005324599517056901,2.439644662545628,2.422927629711403
-0.005323019517056901,2.439308884162265,2.422927629711403
-0.005321439517056901,2.439644662545628,2.423260523519879
-0.005319859517056901,2.439644662545628,2.423260523519879
-0.005318279517056901,2.439644662545628,2.422927629711403
-0.005316699517056901,2.439644662545628,2.423260523519879
-0.005315119517056901,2.439980440928991,2.423593417328356
-0.005313539517056901,2.439644662545628,2.423593417328356
-0.005311959517056901,2.439308884162265,2.422927629711404
-0.005310379517056901,2.439644662545628,2.422927629711403
-0.005308799517056901,2.438973105778901,2.422927629711403
-0.005307219517056901,2.439308884162265,2.422927629711403
-0.005305639517056901,2.438973105778901,2.422927629711403
-0.005304059517056901,2.438973105778901,2.422594735902926
-0.005302479517056901,2.439308884162265,2.422594735902926
-0.005300899517056901,2.439644662545628,2.422594735902926
-0.005299319517056901,2.439980440928991,2.422927629711403
-0.005297739517056901,2.439980440928991,2.422594735902926
-0.005296159517056901,2.439308884162265,2.422594735902926
-0.005294579517056901,2.439308884162265,2.422927629711403
-0.005292999517056901,2.438973105778901,2.422927629711403
-0.005291419517056901,2.438637327395538,2.423260523519879
-0.005289839517056901,2.439644662545628,2.422927629711403
-0.005288259517056901,2.439644662545628,2.422594735902926
-0.005286679517056901,2.439644662545628,2.422927629711403
-0.005285099517056901,2.439644662545628,2.422927629711403
-0.005283519517056901,2.439644662545628,2.423260523519879
-0.005281939517056901,2.439308884162265,2.422594735902926
-0.005280359517056901,2.439308884162265,2.422927629711403
-0.005278779517056901,2.439644662545628,2.422594735902926
-0.005277199517056901,2.440316219312354,2.422927629711403
-0.005275619517056901,2.440316219312355,2.423260523519879
-0.005274039517056901,2.439644662545628,2.423260523519879
-0.005272459517056901,2.439644662545628,2.423260523519879
-0.005270879517056901,2.440316219312355,2.423260523519879
-0.005269299517056901,2.440316219312355,2.423593417328356
-0.005267719517056901,2.440316219312355,2.423260523519879
-0.005266139517056901,2.439644662545628,2.423593417328356
-0.005264559517056901,2.439644662545628,2.423593417328356
-0.005262979517056901,2.439980440928991,2.422927629711403
-0.005261399517056901,2.439644662545628,2.423260523519879
-0.005259819517056901,2.440316219312354,2.423593417328356
-0.005258239517056901,2.439980440928991,2.423260523519879
-0.005256659517056901,2.440316219312355,2.423260523519879
-0.005255079517056901,2.439980440928991,2.423593417328356
-0.005253499517056901,2.440316219312355,2.423260523519879
-0.005251919517056901,2.440316219312355,2.423593417328356
-0.005250339517056901,2.440651997695718,2.423926311136833
-0.005248759517056901,2.440316219312355,2.423593417328356
-0.005247179517056901,2.439644662545628,2.423593417328356
-0.005245599517056901,2.439980440928991,2.423593417328356
-0.005244019517056901,2.440316219312355,2.423926311136833
-0.005242439517056901,2.484974744299664,2.424259204945309
-0.005240859517056901,2.540713955938005,2.433580231582651
-0.005239279517056901,2.540713955938005,2.446895983921711
-0.005237699517056901,2.539706620787915,2.459213054835341
-0.005236119517056901,2.539706620787915,2.469865656706589
-0.005234539517056901,2.540378177554642,2.479186683343934
-0.005232959517056901,2.540378177554642,2.486177453321937
-0.005231379517056901,2.540378177554642,2.492502435682991
-0.005229799517056901,2.540042399171279,2.497828736618615
-0.005228219517056901,2.540042399171279,2.501823462320333
-0.005226639517056901,2.540378177554642,2.505152400405098
-0.005225059517056901,2.539370842404552,2.508148444681385
-0.005223479517056901,2.540042399171279,2.510811595149198
-0.005221899517056901,2.539706620787915,2.512808958000057
-0.005220319517056901,2.539706620787915,2.514140533233963
-0.005218739517056901,2.540042399171279,2.515472108467869
-0.005217159517056901,2.540713955938005,2.516803683701776
-0.005215579517056901,2.540713955938005,2.517802365127205
-0.005213999517056901,2.540378177554642,2.518468152744158
-0.005212419517056901,2.540378177554642,2.519466834169587
-0.005210839517056901,2.540042399171279,2.52013262178654
-0.005209259517056901,2.539370842404552,2.52013262178654
-0.005207679517056901,2.539706620787915,2.520465515595017
-0.005206099517056901,2.539370842404552,2.520798409403493
-0.005204519517056901,2.539706620787915,2.52113130321197
-0.005202939517056901,2.541049734321369,2.52113130321197
-0.005201359517056901,2.539706620787915,2.52113130321197
-0.005199779517056901,2.539370842404552,2.52113130321197
-0.005198199517056901,2.540042399171279,2.521464197020446
-0.005196619517056901,2.540042399171279,2.521797090828922
-0.005195039517056901,2.540042399171279,2.521797090828922
-0.005193459517056901,2.540042399171279,2.521797090828922
-0.005191879517056901,2.539706620787915,2.522129984637399
-0.005190299517056901,2.540042399171279,2.522129984637399
-0.005188719517056901,2.540378177554642,2.522129984637399
-0.005187139517056901,2.540378177554642,2.521797090828922
-0.005185559517056901,2.540042399171279,2.522129984637399
-0.005183979517056901,2.539706620787915,2.522129984637399
-0.005182399517056901,2.539706620787915,2.521797090828922
-0.005180819517056901,2.540042399171279,2.521797090828922
-0.005179239517056901,2.539035064021189,2.521797090828922
-0.005177659517056901,2.539706620787915,2.522129984637399
-0.005176079517056901,2.540042399171279,2.522129984637399
-0.005174499517056901,2.539706620787915,2.521797090828922
-0.005172919517056901,2.540042399171279,2.521797090828922
-0.005171339517056901,2.540042399171279,2.522795772254352
-0.005169759517056901,2.540042399171279,2.522129984637399
-0.005168179517056901,2.540378177554642,2.521797090828922
-0.005166599517056901,2.539706620787915,2.522129984637399
